"rep_airp","PASS_1993","PASS_1994","PASS_1995","PASS_1996","PASS_1997","PASS_1998","PASS_1999","PASS_2000","PASS_2001","PASS_2002","PASS_2003","PASS_2004","PASS_2005","PASS_2006","PASS_2007","PASS_2008","PASS_2009","PASS_2010","PASS_2011","PASS_2012","PASS_2013","PASS_2014","PASS_2015","PASS_2016","PASS_2017","PASS_2018","PASS_2019","PASS_2020","PASS_2021"
"FR_FMCZ",NA,NA,NA,NA,NA,NA,NA,NA,NA,NA,NA,NA,NA,NA,NA,NA,NA,NA,NA,NA,NA,301009,302526,320187,364203,367202,381167,186471,248675
"FR_FMEE",NA,NA,NA,490967,1317128,1351531,999212,1462540,1420585,1438814,1465046,1589974,1543779,1308700,1519962,1580608,1683466,1911231,2084390,1997706,1980665,1990748,2057727,2084936,2252120,2422564,2450824,1035747,1161808
"FR_FMEP",NA,NA,NA,NA,NA,NA,NA,NA,NA,66345,79307,94533,113446,116029,121041,127733,124604,NA,NA,NA,NA,NA,NA,NA,NA,NA,NA,NA,NA
"FR_LF90",31034616,NA,NA,36263589,59745779,63365257,65402963,73498299,NA,NA,NA,NA,NA,NA,NA,NA,NA,NA,NA,NA,NA,NA,NA,NA,NA,NA,NA,NA,NA
"FR_LF96",NA,NA,NA,NA,NA,NA,NA,NA,NA,NA,5363,NA,NA,NA,NA,10503,NA,NA,NA,NA,NA,NA,NA,NA,NA,NA,NA,NA,NA
"FR_LFAC",5393,4180,319,NA,NA,NA,NA,NA,NA,NA,NA,NA,NA,NA,NA,NA,NA,NA,NA,NA,NA,NA,NA,NA,NA,NA,NA,NA,NA
"FR_LFAT",5157,7019,3978,1888,4040,NA,NA,NA,NA,NA,6365,NA,NA,NA,NA,4932,NA,NA,NA,NA,NA,NA,NA,NA,NA,NA,NA,NA,NA
"FR_LFAV",240,88,63,NA,NA,NA,NA,NA,NA,NA,NA,NA,NA,NA,NA,NA,NA,NA,NA,NA,NA,NA,NA,NA,NA,NA,NA,NA,NA
"FR_LFBA",523,577,212,190,22977,NA,NA,NA,NA,33750,33415,NA,15219,23024,NA,23334,27925,NA,NA,NA,NA,NA,NA,NA,NA,NA,NA,NA,NA
"FR_LFBD",424231,436294,472645,518815,2514334,2712118,2860666,2998573,3030327,2904729,2802113,2896721,3062391,3225846,3407614,3501811,3268438,3601883,4020953,4367050,4564910,4906103,5283863,5733124,6176332,6752857,7662559,2250692,3041230
"FR_LFBE",135,247,586,262,14905,NA,NA,NA,NA,62490,115871,204034,233556,269620,243478,294439,274499,259482,290008,248063,286202,277046,280386,303874,314344,285584,283737,54182,68367
"FR_LFBH",1204,1052,997,636,35202,NA,NA,NA,NA,91720,93872,100255,127460,179821,220054,214013,168771,190454,227841,235411,214628,210567,216056,219848,221297,239814,231648,32105,60980
"FR_LFBI",2783,6700,5711,7136,29767,NA,NA,NA,NA,74172,85714,102970,120973,119218,105053,104297,104309,NA,NA,NA,NA,NA,NA,NA,NA,NA,NA,NA,NA
"FR_LFBK",52,NA,96,NA,1642,NA,NA,NA,NA,NA,NA,NA,NA,NA,NA,NA,NA,NA,NA,NA,NA,NA,NA,NA,NA,NA,NA,NA,NA
"FR_LFBL",12871,13486,12765,11320,105144,NA,NA,NA,NA,163988,191360,226844,283993,375223,390217,378533,348938,333013,335111,305319,298191,290953,292369,290308,308663,301168,299675,62962,68839
"FR_LFBN",370,350,433,NA,NA,NA,NA,NA,NA,NA,NA,NA,NA,NA,NA,NA,NA,NA,NA,NA,NA,NA,NA,NA,NA,NA,NA,NA,NA
"FR_LFBO",702013,724277,774902,925851,4257850,4589129,4932124,5229675,5173496,5288503,5257909,5563090,5747415,5898990,6111097,6293548,6227502,6344224,6938293,7515161,7531709,7493076,7649516,8070764,9236226,9593763,9616912,3128618,3816566
"FR_LFBP",3893,4144,4788,4728,557713,590142,605116,602793,593321,584940,682033,720422,728932,762874,761344,816313,690264,670933,638990,608318,644052,617833,630350,605029,596778,609456,602164,183645,242496
"FR_LFBT",395902,413141,390787,397467,493711,471860,431796,407596,387553,440158,376011,408391,460958,449047,441259,676429,478632,434169,445719,408335,380853,387790,370745,380315,433364,458049,465011,77192,121971
"FR_LFBU",276,172,176,NA,13723,NA,NA,NA,NA,NA,10418,NA,NA,6553,NA,25531,28068,NA,NA,NA,NA,NA,NA,NA,NA,NA,NA,NA,NA
"FR_LFBV",812,107,158,NA,32092,NA,NA,NA,NA,21925,21564,21955,24491,24244,22614,21582,20403,NA,NA,NA,NA,NA,NA,NA,NA,NA,NA,NA,NA
"FR_LFBX",435,314,518,NA,34483,NA,NA,NA,NA,22755,22478,20150,4189,NA,NA,5266,NA,NA,NA,NA,NA,NA,NA,NA,NA,NA,NA,NA,NA
"FR_LFBZ",9193,9693,5760,6370,588500,656333,748803,772930,785754,778037,799479,785912,816396,864792,924612,1024010,998550,989517,1031474,1083717,1097389,1063597,1039729,1134849,1190587,1183198,1065791,382951,607872
"FR_LFCC",54,177,66,NA,NA,NA,NA,NA,NA,NA,NA,NA,NA,NA,NA,NA,NA,NA,NA,NA,NA,NA,NA,NA,NA,NA,NA,NA,NA
"FR_LFCH",NA,NA,26,NA,NA,NA,NA,NA,NA,NA,NA,NA,NA,NA,NA,NA,NA,NA,NA,NA,NA,NA,NA,NA,NA,NA,NA,NA,NA
"FR_LFCI",88,129,25,NA,NA,NA,NA,NA,NA,NA,NA,NA,NA,NA,NA,NA,NA,NA,NA,NA,NA,NA,NA,NA,NA,NA,NA,NA,NA
"FR_LFCK",4,152,19,212,18993,NA,NA,NA,NA,19244,20268,18635,19701,20556,21445,22482,28567,NA,NA,NA,NA,NA,NA,NA,NA,NA,NA,NA,NA
"FR_LFCR",639,8,33,2381,59218,NA,NA,NA,NA,64235,116068,143603,156896,148154,140199,144482,131344,NA,NA,153952,141166,121041,NA,NA,NA,NA,NA,NA,NA
"FR_LFDN",NA,94,138,NA,NA,NA,NA,NA,NA,NA,NA,NA,22277,NA,NA,NA,NA,NA,NA,NA,NA,NA,NA,NA,NA,NA,NA,NA,NA
"FR_LFEC",NA,NA,NA,NA,10024,NA,NA,NA,NA,NA,6063,NA,NA,6299,NA,6715,NA,NA,NA,NA,NA,NA,NA,NA,NA,NA,NA,NA,NA
"FR_LFEY",NA,1,NA,NA,8420,NA,NA,NA,NA,NA,NA,NA,NA,NA,NA,NA,NA,NA,NA,NA,NA,NA,NA,NA,NA,NA,NA,NA,NA
"FR_LFGA",434,746,832,NA,NA,NA,NA,NA,NA,NA,NA,NA,NA,NA,NA,NA,NA,NA,NA,NA,NA,NA,NA,NA,NA,NA,NA,NA,NA
"FR_LFGJ",5311,6246,3628,3930,3797,NA,NA,NA,NA,NA,4216,NA,NA,NA,NA,NA,NA,NA,NA,NA,NA,NA,NA,NA,NA,NA,NA,NA,NA
"FR_LFHB",59,NA,14,NA,NA,NA,NA,NA,NA,NA,NA,NA,NA,NA,NA,NA,NA,NA,NA,NA,NA,NA,NA,NA,NA,NA,NA,NA,NA
"FR_LFHO",30,NA,8,NA,NA,NA,NA,NA,NA,NA,NA,NA,NA,NA,NA,NA,NA,NA,NA,NA,NA,NA,NA,NA,NA,NA,NA,NA,NA
"FR_LFHP",26,NA,NA,NA,7491,NA,NA,NA,NA,NA,7710,NA,NA,7316,NA,8019,NA,NA,NA,NA,NA,NA,NA,NA,NA,NA,NA,NA,NA
"FR_LFJL",47758,52376,46532,49173,210914,260888,288166,328132,313931,286631,279737,303312,331061,319086,314211,261811,229138,233034,249824,256043,233923,240285,244677,223129,231351,256060,241534,37297,18509
"FR_LFJR",NA,NA,NA,NA,NA,NA,NA,NA,NA,11837,8423,NA,NA,9194,NA,4787,NA,NA,NA,NA,NA,NA,NA,NA,NA,NA,NA,NA,NA
"FR_LFKB",31210,31379,31338,27845,706956,769519,800106,825138,860878,823722,833303,819556,820264,820804,857672,931758,1009530,1006369,1023566,1002902,1120340,1161080,1189915,1284641,1397823,1522124,1557828,810605,1194215
"FR_LFKC",48766,53776,53800,45901,195522,NA,256076,NA,NA,261526,252681,224796,243931,267620,271912,275834,285890,273564,294292,313001,301837,325976,316567,321101,325198,335108,335614,178971,287009
"FR_LFKF",23975,24129,18130,12507,207265,NA,283453,NA,NA,304121,305134,261791,275701,312822,343694,372492,400282,437001,444970,458168,446842,497875,577772,631083,720165,744306,737668,463196,774408
"FR_LFKJ",31032,30681,32645,31045,781575,926163,1030987,1059548,1091758,1062854,1061634,975147,976811,984585,1023838,1070340,1085040,1109815,1171198,1214378,1341608,1353923,1356069,1419756,1567353,1672446,1617556,939446,1409220
"FR_LFLA",2189,665,1679,615,NA,NA,NA,NA,NA,NA,NA,NA,NA,NA,NA,NA,NA,NA,NA,NA,NA,NA,NA,NA,NA,NA,NA,NA,NA
"FR_LFLB",22102,28963,36968,35515,71145,NA,NA,NA,NA,140787,136555,178315,192968,194449,231427,270346,258519,231485,233216,225558,215844,222767,211328,208742,186406,204892,203496,105091,6408
"FR_LFLC",21275,20812,34495,47765,548318,NA,NA,NA,NA,1060842,919266,621041,564671,552163,541718,512408,390337,365587,388887,375368,416002,416447,393281,396191,383936,421509,426713,114372,91676
"FR_LFLD",646,444,549,NA,NA,NA,NA,NA,NA,NA,NA,NA,NA,NA,NA,NA,NA,NA,NA,NA,NA,NA,NA,NA,NA,NA,NA,NA,NA
"FR_LFLG",NA,NA,6,NA,NA,NA,NA,NA,NA,NA,NA,NA,NA,NA,NA,NA,NA,NA,NA,NA,NA,NA,NA,NA,NA,NA,NA,NA,NA
"FR_LFLH",91,43,10,NA,NA,NA,NA,NA,NA,NA,NA,NA,NA,NA,NA,NA,NA,NA,NA,NA,NA,NA,NA,NA,NA,NA,NA,NA,NA
"FR_LFLJ",212,920,56,785,NA,NA,NA,NA,NA,NA,NA,NA,NA,NA,NA,5256,NA,NA,NA,NA,NA,NA,NA,NA,NA,NA,NA,NA,NA
"FR_LFLL",1759447,1851367,2097637,2398014,4786929,5078216,5327097,5915177,6047065,5724567,5858464,6124793,6462513,6661182,7192586,7796708,7572833,7792418,8317573,8365446,8500103,8399500,8635079,9504596,10229723,10975608,11689945,3539768,4504305
"FR_LFLM",NA,8,19,NA,NA,NA,NA,NA,NA,NA,NA,NA,NA,NA,NA,NA,NA,NA,NA,NA,NA,NA,NA,NA,NA,NA,NA,NA,NA
"FR_LFLN",100,26,83,NA,NA,NA,NA,NA,NA,NA,NA,NA,NA,NA,NA,NA,NA,NA,NA,NA,NA,NA,NA,NA,NA,NA,NA,NA,NA
"FR_LFLO",27,84,148,NA,8125,NA,NA,NA,NA,NA,NA,NA,NA,NA,NA,NA,NA,NA,NA,NA,NA,NA,NA,NA,NA,NA,NA,NA,NA
"FR_LFLP",1373,213,705,552,63031,NA,NA,NA,NA,57039,36178,49215,51214,65016,64407,59378,51280,NA,NA,NA,NA,NA,NA,NA,NA,NA,NA,NA,NA
"FR_LFLS",44810,23249,20044,26715,263754,282360,248101,NA,218228,264460,178083,203547,270980,430419,468557,467565,455105,352705,335079,313201,336903,320119,294549,303941,344699,354772,307892,207218,15556
"FR_LFLU",607,521,634,NA,NA,NA,NA,NA,NA,NA,NA,NA,NA,NA,NA,NA,NA,NA,NA,NA,NA,NA,NA,NA,NA,NA,NA,NA,NA
"FR_LFLV",522,382,574,170,NA,NA,NA,NA,NA,NA,NA,NA,NA,NA,NA,NA,NA,NA,NA,NA,NA,NA,NA,NA,NA,NA,NA,NA,NA
"FR_LFLW",34,8,22,NA,13362,NA,NA,NA,NA,17637,17447,14578,16881,19234,18666,19028,20501,NA,NA,NA,NA,NA,NA,NA,NA,NA,NA,NA,NA
"FR_LFLX",3626,6469,1457,2207,NA,NA,NA,NA,NA,NA,8227,NA,14880,NA,3196,3959,NA,NA,NA,NA,NA,NA,NA,NA,NA,NA,NA,NA,NA
"FR_LFLY",2830,NA,2924,380,NA,NA,NA,NA,NA,NA,13721,11473,NA,9893,NA,9829,NA,NA,NA,NA,NA,NA,NA,NA,NA,NA,NA,NA,NA
"FR_LFMD",1854,2087,2363,1953,NA,NA,NA,NA,NA,NA,9968,11624,15140,16511,17911,19746,16945,NA,NA,NA,NA,NA,NA,NA,NA,NA,NA,NA,NA
"FR_LFMH",1158,2234,1671,1351,76323,NA,NA,NA,NA,111614,114610,94224,102579,39347,8383,8517,20168,NA,NA,NA,NA,NA,NA,NA,NA,4276,NA,NA,NA
"FR_LFMK",811,89,138,NA,10417,NA,NA,NA,NA,187819,252061,273644,341178,427547,471318,445633,452583,392937,368003,393214,430739,412467,390254,391941,398937,375336,351879,75493,86745
"FR_LFML",1311137,1273405,1363037,1455390,5308871,5511793,5849864,6329034,5831809,5360548,5234112,5604981,5699911,5958159,6804097,6810007,7134865,7336486,7223424,8171982,8212289,8126211,8190301,8395000,8919672,9327699,10117073,3336977,4636248
"FR_LFMN",2164702,2259638,2356776,2481295,7265415,7980037,8567732,9334942,8949351,9183176,9123961,9326742,9740310,9926198,10380899,10364596,9813031,9587076,10404775,11177430,11539859,11655418,12012300,12419650,13300234,13836020,14467269,4574378,6528938
"FR_LFMP",18134,22852,23095,12542,421198,464223,487293,522193,425573,645291,468898,445433,426829,447203,422701,457935,425008,362722,367717,346886,364983,354395,368801,376603,410267,464275,447692,188537,254617
"FR_LFMQ",NA,NA,NA,NA,NA,NA,NA,NA,NA,NA,NA,NA,NA,NA,NA,4704,NA,NA,NA,NA,NA,NA,NA,NA,NA,NA,NA,NA,NA
"FR_LFMT",71477,75219,93012,103970,1386051,1505661,1615015,1724064,1535754,1560024,1565261,1325821,1303978,1322966,1284754,1254691,1221596,1178214,1308070,1283275,1420818,1444250,1508060,1669399,1847290,1878087,1934833,805134,1099464
"FR_LFMU",25,54,131,100,74219,NA,NA,NA,NA,67797,61129,34552,43276,46440,31791,75076,86806,NA,193702,223805,227102,242121,244585,243317,233028,229415,259142,54962,93955
"FR_LFMV",408,1398,921,106,121479,NA,NA,NA,NA,93424,80242,75982,74552,81852,103353,71395,30613,NA,NA,NA,NA,NA,NA,NA,NA,NA,NA,NA,NA
"FR_LFNA",25,47,14,NA,NA,NA,NA,NA,NA,NA,NA,NA,NA,NA,NA,NA,NA,NA,NA,NA,NA,NA,NA,NA,NA,NA,NA,NA,NA
"FR_LFOB",82507,58887,75929,60256,192817,245413,378929,377348,411973,675371,968663,1427615,1849625,1887858,2154547,2484861,2591915,2931103,3677236,3862691,3952031,4023363,4328691,3997492,3646400,3785403,3982138,1257960,2063117
"FR_LFOD",33,NA,186,NA,NA,NA,NA,NA,NA,NA,NA,NA,NA,NA,NA,NA,NA,NA,NA,NA,NA,NA,NA,NA,NA,NA,NA,NA,NA
"FR_LFOH",26496,24308,28910,39871,57959,NA,NA,NA,NA,41389,56481,45938,44796,45535,58609,50624,46523,NA,NA,NA,NA,NA,NA,NA,NA,NA,NA,NA,NA
"FR_LFOK",NA,NA,NA,NA,NA,NA,NA,NA,NA,NA,NA,NA,5621,8448,4456,3212,2538,20644,50789,86334,99384,96070,81081,132772,NA,60666,80564,NA,NA
"FR_LFOP",18985,10138,15992,7667,29240,NA,NA,NA,NA,34857,24530,19864,20228,21576,30630,23623,21142,NA,NA,NA,NA,NA,NA,NA,NA,NA,NA,NA,NA
"FR_LFOT",2619,4755,2043,6535,6676,NA,NA,NA,NA,36084,60539,82336,89284,82296,85310,90426,111718,NA,NA,166795,180321,183207,187502,199936,189134,180266,195391,48992,62782
"FR_LFOU",23,10,29,184,NA,NA,NA,NA,NA,NA,NA,NA,NA,NA,NA,NA,NA,NA,NA,NA,NA,NA,NA,NA,NA,NA,NA,NA,NA
"FR_LFOV",137,201,166,NA,NA,NA,NA,NA,NA,NA,NA,NA,NA,NA,NA,NA,NA,NA,NA,NA,NA,NA,NA,NA,NA,NA,NA,NA,NA
"FR_LFOZ",563,817,885,NA,NA,NA,NA,NA,NA,NA,NA,NA,NA,NA,NA,NA,NA,NA,NA,NA,NA,NA,NA,NA,NA,NA,NA,NA,NA
"FR_LFPG",NA,24994850,24854897,NA,NA,NA,NA,NA,47917843,48257964,48008164,50951316,53381116,56448699,59549883,60495597,57688772,57932285,60713648,61377229,61889855,63648567,65674223,65859946,69418254,72196444,76136816,22242299,26187008
"FR_LFPO",NA,9207826,8987551,NA,NA,NA,NA,NA,22991242,23143632,22448820,24049424,24850326,25603532,26415520,26187660,25087342,25157100,27099081,27188689,28248908,28842069,29663148,31235738,32039570,33114935,31853675,10782724,15719099
"FR_LFQA",110,66,NA,NA,NA,NA,NA,NA,NA,NA,NA,NA,NA,NA,NA,NA,NA,NA,NA,NA,NA,NA,NA,NA,NA,NA,NA,NA,NA
"FR_LFQB",547,442,842,NA,NA,NA,NA,NA,NA,NA,NA,NA,NA,NA,NA,NA,NA,NA,NA,NA,NA,NA,NA,NA,NA,NA,NA,NA,NA
"FR_LFQG",706,659,1143,134,NA,NA,NA,NA,NA,NA,NA,NA,NA,NA,NA,NA,NA,NA,NA,NA,NA,NA,NA,NA,NA,NA,NA,NA,NA
"FR_LFQJ",NA,16,NA,NA,NA,NA,NA,NA,NA,NA,NA,NA,NA,NA,NA,NA,NA,NA,NA,NA,NA,NA,NA,NA,NA,NA,NA,NA,NA
"FR_LFQQ",210292,209378,231117,259349,800271,844215,958594,977851,960781,917896,869583,836445,834537,925488,1037355,1007535,1133649,1148996,1142744,1366154,1645783,1571777,1520419,1772210,1898533,2063672,2181841,733790,1161725
"FR_LFQT",95,43,NA,NA,NA,NA,NA,NA,NA,NA,NA,NA,NA,NA,NA,NA,NA,NA,NA,NA,NA,NA,NA,NA,NA,NA,NA,NA,NA
"FR_LFQV",56,10,149,NA,NA,NA,NA,NA,NA,NA,NA,NA,NA,NA,NA,NA,NA,NA,NA,NA,NA,NA,NA,NA,NA,NA,NA,NA,NA
"FR_LFRA",192,226,128,NA,NA,NA,NA,NA,NA,NA,NA,NA,NA,NA,NA,NA,NA,NA,NA,NA,NA,NA,NA,NA,NA,NA,NA,NA,NA
"FR_LFRB",28930,35936,40452,41979,575836,644141,699962,733220,706212,729681,690954,674695,753460,795256,839805,859179,866809,894234,972575,1047739,984965,985014,986231,995212,1019419,1077308,1205960,459364,647531
"FR_LFRC",13621,13615,10998,9633,19267,NA,NA,NA,NA,NA,9303,10013,NA,13064,8294,7146,NA,NA,NA,NA,NA,NA,NA,NA,NA,NA,NA,NA,NA
"FR_LFRD",40732,38361,47818,35879,29409,NA,NA,NA,NA,96570,112590,143909,180187,163687,178516,185362,136705,120827,NA,NA,NA,NA,NA,NA,NA,NA,NA,NA,NA
"FR_LFRE",17,15,NA,NA,NA,NA,NA,NA,NA,NA,NA,NA,NA,NA,NA,NA,NA,NA,NA,NA,NA,NA,NA,NA,NA,NA,NA,NA,NA
"FR_LFRG",19420,12400,9081,15700,8171,NA,NA,NA,NA,19536,23206,33148,41034,54524,75229,81859,76446,NA,NA,NA,NA,NA,NA,NA,NA,NA,110416,NA,NA
"FR_LFRH",4256,1134,2148,2688,190601,NA,NA,NA,NA,213766,206763,198077,213960,225025,213530,215601,187496,176278,181390,175843,164935,123081,141246,122697,129526,NA,NA,NA,NA
"FR_LFRI",61,62,112,100,NA,NA,NA,NA,NA,NA,NA,NA,NA,NA,NA,NA,NA,NA,NA,NA,NA,NA,NA,NA,NA,NA,NA,NA,NA
"FR_LFRK",6716,9952,6132,4916,46606,NA,NA,NA,NA,134717,98415,98377,99335,105877,111535,107866,89638,NA,NA,NA,NA,NA,NA,NA,NA,NA,304683,162327,227131
"FR_LFRM",819,365,1183,1779,2087,NA,NA,NA,NA,NA,5426,NA,NA,8816,7284,8491,NA,NA,NA,NA,NA,NA,NA,NA,NA,NA,NA,NA,NA
"FR_LFRN",20402,22361,21753,20130,285983,324794,369409,413110,391444,373729,375740,375616,404102,460392,524059,486161,425922,404356,431311,448477,475903,502098,537673,640087,720519,847123,848268,256114,390260
"FR_LFRO",1862,1801,2188,1464,41187,NA,NA,NA,NA,53737,39609,50906,53071,45704,50113,41691,34385,NA,NA,NA,NA,NA,NA,NA,NA,NA,NA,NA,NA
"FR_LFRQ",7367,14037,18751,19916,143366,NA,NA,NA,NA,135623,135318,138372,133755,139356,136797,120233,115350,NA,NA,NA,NA,NA,NA,NA,NA,NA,NA,NA,NA
"FR_LFRS",308592,333214,374508,431185,1311506,1557608,1710262,1867904,1908535,1804249,1806945,1864271,2071864,2332238,2518810,2661935,2560424,2954321,3158417,3545420,3834901,4081108,4308316,4712133,5427352,6136598,7189067,2317791,3279725
"FR_LFRT",448,1517,1471,2123,10519,NA,NA,NA,NA,NA,4738,NA,NA,9332,NA,4405,NA,NA,NA,NA,NA,NA,NA,NA,NA,NA,NA,NA,NA
"FR_LFRU",1348,548,380,NA,NA,NA,NA,NA,NA,NA,NA,NA,NA,NA,NA,NA,NA,NA,NA,NA,NA,NA,NA,NA,NA,NA,NA,NA,NA
"FR_LFRV",194,191,727,NA,NA,NA,NA,NA,NA,NA,NA,NA,NA,NA,NA,NA,NA,NA,NA,NA,NA,NA,NA,NA,NA,NA,NA,NA,NA
"FR_LFRZ",418,269,292,269,NA,NA,NA,NA,NA,NA,NA,NA,NA,NA,10977,11507,13024,14393,14112,16153,18394,14862,13712,16455,14733,13758,11825,1364,1086
"FR_LFSB",1396581,1441037,1639208,1660718,2549809,2896625,3487152,1829918,1759320,1599450,1327673,1246969,1261488,1002736,919648,780527,722072,742674,638134,588803,673744,674521,706297,557624,619103,705176,688192,277131,537090
"FR_LFSD",NA,4531,4063,3592,12077,NA,NA,NA,NA,44801,18835,9685,9749,11382,13578,13752,NA,NA,NA,NA,NA,NA,NA,NA,NA,NA,NA,NA,NA
"FR_LFSG",589,778,446,310,9116,NA,NA,NA,NA,NA,4560,NA,NA,NA,NA,NA,NA,NA,NA,NA,NA,NA,NA,NA,NA,NA,NA,NA,NA
"FR_LFSN",257,271,287,NA,NA,NA,NA,NA,NA,NA,NA,NA,NA,NA,NA,NA,NA,NA,NA,NA,NA,NA,NA,NA,NA,NA,NA,NA,NA
"FR_LFSR",5620,7372,3408,5340,4854,NA,NA,NA,NA,NA,40321,NA,20330,24657,NA,NA,NA,NA,NA,NA,NA,NA,NA,NA,NA,NA,NA,NA,NA
"FR_LFST",265794,281950,362188,403962,2053230,2111914,2213875,1998011,2081676,1993822,2037605,1919016,1922770,2001491,1700476,1292673,1074324,1033809,1065242,1152026,1168888,1157391,1181143,1059227,1187049,1268996,1276508,511976,628229
"FR_LFTG",NA,NA,NA,NA,NA,NA,NA,NA,NA,NA,6141,NA,NA,NA,NA,NA,NA,NA,NA,NA,NA,NA,NA,NA,NA,NA,NA,NA,NA
"FR_LFTH",5329,2619,1211,1152,618598,698039,728018,693208,546520,736872,551375,525046,534124,635522,640950,626885,572861,500361,573745,575112,578182,547960,507095,497948,502671,567590,505922,205668,345672
"FR_LFTW",4149,1862,2770,1430,260939,245663,284157,273539,315350,230511,134282,156156,205909,226664,225697,224461,181497,180125,192493,184872,195312,207172,205809,212897,216219,236481,230426,57386,70242
"FR_LFTZ",NA,NA,NA,NA,NA,NA,NA,NA,NA,NA,4480,NA,NA,7174,NA,6969,NA,NA,NA,NA,NA,NA,NA,NA,NA,NA,NA,NA,NA
"FR_LFVP",19087,NA,NA,NA,NA,NA,NA,NA,NA,NA,NA,NA,NA,NA,NA,NA,NA,NA,NA,NA,NA,NA,NA,NA,NA,NA,NA,NA,NA
"FR_LFXR",112,NA,NA,NA,NA,NA,NA,NA,NA,NA,NA,NA,NA,NA,NA,NA,NA,NA,NA,NA,NA,NA,NA,NA,NA,NA,NA,NA,NA
"FR_SOCA",NA,NA,NA,44917,375080,400359,420874,431704,384155,364029,374131,391034,369529,367535,383168,384168,394458,416317,431096,415757,419965,429831,443270,493223,488628,531352,559747,269985,334796
"FR_TFFF",NA,NA,NA,202138,1539026,1566273,1642848,1617711,1519117,1434775,1441649,1504393,1515927,1541106,1602384,1571731,1495308,1555910,1620090,1565105,1622791,1622657,1634322,1774385,1820209,1897370,1954329,985534,966560
"FR_TFFG",NA,NA,NA,2181,NA,NA,NA,NA,NA,112097,163463,178278,188637,176308,187794,190589,218707,206646,218922,199789,208072,192364,198005,217808,214568,192343,206232,107788,120883
"FR_TFFJ",NA,NA,NA,94643,NA,NA,NA,NA,NA,157435,164531,159691,157639,170086,177044,161533,145311,138852,150974,NA,NA,NA,NA,NA,NA,NA,NA,NA,NA
"FR_TFFM",NA,NA,NA,NA,22678,NA,NA,NA,NA,NA,16071,10139,NA,7174,NA,NA,NA,NA,NA,NA,NA,NA,NA,NA,NA,NA,NA,NA,NA
"FR_TFFR",NA,NA,NA,222518,1382448,1801624,1878141,1958114,1807352,1719442,1656663,1735375,1721648,1754218,1863009,1907453,1723698,1834632,1948551,1919185,1961580,1959593,2004705,2160606,2252244,2360023,2412704,1239561,1242862
"FR_TFFS",NA,NA,NA,NA,NA,NA,NA,NA,NA,NA,4683,NA,NA,NA,NA,NA,NA,NA,NA,NA,NA,NA,NA,NA,NA,NA,NA,NA,NA
