{
"type": "FeatureCollection",
"name": "winter",
"crs": { "type": "name", "properties": { "name": "urn:ogc:def:crs:OGC:1.3:CRS84" } },
"features": [
{ "type": "Feature", "properties": { "osm_id": "45094811", "name": "Bardonecchia", "access": null, "area": null, "description": null, "landuse": "winter_sports", "name.oc": null, "operator": null, "piste.difficulty": null, "piste.grooming": null, "piste.type": null, "source.name.oc": null, "sport": null, "website": "https://www.bardonecchiaski.com", "wikidata": null, "wikipedia": null }, "geometry": { "type": "Polygon", "coordinates": [ [ [ 6.6994195, 45.0711804 ], [ 6.6981901, 45.0710298 ], [ 6.6970604, 45.070867 ], [ 6.6960701, 45.0703641 ], [ 6.6958341, 45.0699682 ], [ 6.6932632, 45.0685735 ], [ 6.6918375, 45.0667834 ], [ 6.6909821, 45.0656422 ], [ 6.6907999, 45.065186 ], [ 6.6907609, 45.0648377 ], [ 6.690744, 45.0644724 ], [ 6.6903976, 45.0640403 ], [ 6.6894632, 45.063857 ], [ 6.6886403, 45.0635267 ], [ 6.6881973, 45.0632596 ], [ 6.6877931, 45.0627835 ], [ 6.6878108, 45.0621966 ], [ 6.6881216, 45.0616698 ], [ 6.6905237, 45.0593064 ], [ 6.6910063, 45.0585741 ], [ 6.6909736, 45.0578543 ], [ 6.6900073, 45.0570293 ], [ 6.6892651, 45.0566908 ], [ 6.6884878, 45.0566917 ], [ 6.686981, 45.0572305 ], [ 6.6854456, 45.0581606 ], [ 6.6841463, 45.0587626 ], [ 6.6831165, 45.0588592 ], [ 6.6822669, 45.0585903 ], [ 6.6815724, 45.0580892 ], [ 6.681054, 45.0575629 ], [ 6.6803091, 45.0564982 ], [ 6.6799511, 45.0555741 ], [ 6.679866, 45.0547474 ], [ 6.6799021, 45.0540849 ], [ 6.6802215, 45.0532601 ], [ 6.6805991, 45.0525182 ], [ 6.6817297, 45.0505874 ], [ 6.6832178, 45.04876 ], [ 6.6867692, 45.0449965 ], [ 6.6852693, 45.0414184 ], [ 6.6899385, 45.0384056 ], [ 6.6942965, 45.0369454 ], [ 6.7015986, 45.0338543 ], [ 6.7042786, 45.0331909 ], [ 6.7050522, 45.0362328 ], [ 6.7045188, 45.0382816 ], [ 6.7057796, 45.0383394 ], [ 6.7070127, 45.0384996 ], [ 6.7082313, 45.0386915 ], [ 6.7093344, 45.0389756 ], [ 6.7106431, 45.0398981 ], [ 6.7116472, 45.0409456 ], [ 6.7118726, 45.0421066 ], [ 6.7117739, 45.043229 ], [ 6.7112992, 45.0443601 ], [ 6.7103327, 45.0451765 ], [ 6.709768, 45.0459224 ], [ 6.7095116, 45.0468677 ], [ 6.7097517, 45.048094 ], [ 6.7099873, 45.0488859 ], [ 6.7116191, 45.0502862 ], [ 6.7140402, 45.0518998 ], [ 6.7153715, 45.053377 ], [ 6.7151797, 45.0546836 ], [ 6.7141896, 45.0567817 ], [ 6.7128431, 45.0587959 ], [ 6.7122412, 45.0607026 ], [ 6.7116187, 45.0633678 ], [ 6.7099649, 45.0653683 ], [ 6.7082683, 45.067126 ], [ 6.7062705, 45.0688041 ], [ 6.7038139, 45.070376 ], [ 6.7018408, 45.0709757 ], [ 6.6994195, 45.0711804 ] ] ] } },
{ "type": "Feature", "properties": { "osm_id": "45094892", "name": "Bardonecchia - Jafferau", "access": null, "area": null, "description": null, "landuse": "winter_sports", "name.oc": null, "operator": null, "piste.difficulty": null, "piste.grooming": null, "piste.type": null, "source.name.oc": null, "sport": null, "website": "https://www.bardonecchiaski.com/", "wikidata": null, "wikipedia": null }, "geometry": { "type": "Polygon", "coordinates": [ [ [ 6.7123765, 45.082439 ], [ 6.7122032, 45.0817516 ], [ 6.7127006, 45.0809496 ], [ 6.7128719, 45.0807098 ], [ 6.71325, 45.0806312 ], [ 6.7152098, 45.0807212 ], [ 6.7241473, 45.0811384 ], [ 6.7297061, 45.0809266 ], [ 6.7379894, 45.0801564 ], [ 6.7431483, 45.0803798 ], [ 6.7479625, 45.0812134 ], [ 6.7526231, 45.0820743 ], [ 6.7584154, 45.0825496 ], [ 6.7615183, 45.0827929 ], [ 6.762583, 45.0830559 ], [ 6.7634138, 45.0834509 ], [ 6.7641308, 45.0840364 ], [ 6.7647765, 45.0846631 ], [ 6.766318, 45.0858315 ], [ 6.7671542, 45.0865812 ], [ 6.7673712, 45.0870152 ], [ 6.7674788, 45.0874732 ], [ 6.76748, 45.0885533 ], [ 6.7673668, 45.0898067 ], [ 6.7670366, 45.0910432 ], [ 6.7668249, 45.0913704 ], [ 6.7665118, 45.091584 ], [ 6.7660539, 45.0918349 ], [ 6.764278, 45.0924378 ], [ 6.7618135, 45.092948 ], [ 6.7585499, 45.0929388 ], [ 6.7556356, 45.0924783 ], [ 6.7531351, 45.0923475 ], [ 6.7507519, 45.0925376 ], [ 6.7491303, 45.0925381 ], [ 6.7474914, 45.0921698 ], [ 6.7452268, 45.0911974 ], [ 6.742931, 45.0904191 ], [ 6.739937, 45.0893466 ], [ 6.7344582, 45.0883325 ], [ 6.7302152, 45.0883288 ], [ 6.7264932, 45.0886704 ], [ 6.7246917, 45.0886344 ], [ 6.7238609, 45.0883875 ], [ 6.7205383, 45.0874584 ], [ 6.7172863, 45.0858872 ], [ 6.7148748, 45.0841881 ], [ 6.7123765, 45.082439 ] ] ] } },
{ "type": "Feature", "properties": { "osm_id": "45117869", "name": "Les 3 Vallées", "access": null, "area": null, "description": null, "landuse": "winter_sports", "name.oc": null, "operator": null, "piste.difficulty": null, "piste.grooming": null, "piste.type": null, "source.name.oc": null, "sport": null, "website": "https://www.les3vallees.com", "wikidata": null, "wikipedia": null }, "geometry": { "type": "Polygon", "coordinates": [ [ [ 6.5970492, 45.2705369 ], [ 6.599534, 45.2707556 ], [ 6.601633, 45.2707484 ], [ 6.6036667, 45.2703998 ], [ 6.6074886, 45.2687399 ], [ 6.610761, 45.2670876 ], [ 6.614247, 45.2658359 ], [ 6.6155034, 45.2658628 ], [ 6.6167369, 45.2661363 ], [ 6.6180042, 45.2669967 ], [ 6.6186577, 45.2678887 ], [ 6.6192065, 45.268926 ], [ 6.6195114, 45.2698414 ], [ 6.6192065, 45.2712952 ], [ 6.6183731, 45.2723447 ], [ 6.6173549, 45.2731905 ], [ 6.6160695, 45.2736788 ], [ 6.6145896, 45.2740197 ], [ 6.6118964, 45.2744428 ], [ 6.6090537, 45.2751482 ], [ 6.6037181, 45.2771507 ], [ 6.5977503, 45.2810052 ], [ 6.5976, 45.2816059 ], [ 6.5977784, 45.2821112 ], [ 6.5984697, 45.2825554 ], [ 6.6003033, 45.2831576 ], [ 6.6100496, 45.2852599 ], [ 6.6180886, 45.287312 ], [ 6.6219302, 45.2884632 ], [ 6.622507, 45.2893547 ], [ 6.6220743, 45.2904568 ], [ 6.620284, 45.2922411 ], [ 6.6161748, 45.2955369 ], [ 6.6122774, 45.2970742 ], [ 6.6097641, 45.2974585 ], [ 6.6018965, 45.298304 ], [ 6.5928997, 45.2976635 ], [ 6.5905923, 45.2976893 ], [ 6.5882738, 45.2980478 ], [ 6.5873872, 45.2986045 ], [ 6.587127, 45.2989539 ], [ 6.5873694, 45.2995362 ], [ 6.5888202, 45.3010198 ], [ 6.5903557, 45.3034959 ], [ 6.591297, 45.3059899 ], [ 6.5917705, 45.3080457 ], [ 6.5930938, 45.3148069 ], [ 6.5947611, 45.3216071 ], [ 6.5953747, 45.3242988 ], [ 6.5958268, 45.3249605 ], [ 6.5965198, 45.3254152 ], [ 6.5980781, 45.3261995 ], [ 6.6004467, 45.3266982 ], [ 6.6028288, 45.3268237 ], [ 6.6081801, 45.3267497 ], [ 6.6107258, 45.3266658 ], [ 6.6119963, 45.3268769 ], [ 6.6129549, 45.3273076 ], [ 6.6143293, 45.3289069 ], [ 6.6145828, 45.3303007 ], [ 6.6146989, 45.3320248 ], [ 6.613658, 45.3337016 ], [ 6.6099586, 45.3365521 ], [ 6.6048031, 45.342566 ], [ 6.5959105, 45.3501831 ], [ 6.5881691, 45.3594934 ], [ 6.5844411, 45.3658045 ], [ 6.5843935, 45.3671606 ], [ 6.5846572, 45.3672296 ], [ 6.5848833, 45.3673434 ], [ 6.5850587, 45.3675132 ], [ 6.584873, 45.3678583 ], [ 6.5847661, 45.3678863 ], [ 6.5846396, 45.3682086 ], [ 6.5849379, 45.3682878 ], [ 6.5849057, 45.3685119 ], [ 6.5847586, 45.3685796 ], [ 6.5845238, 45.3685786 ], [ 6.5842873, 45.3688441 ], [ 6.5844134, 45.3688958 ], [ 6.5849311, 45.3691755 ], [ 6.5870591, 45.369643 ], [ 6.5900755, 45.3695231 ], [ 6.5931488, 45.3704827 ], [ 6.5969513, 45.3747531 ], [ 6.5996191, 45.3751279 ], [ 6.6046879, 45.3738786 ], [ 6.6109735, 45.3720609 ], [ 6.6155548, 45.3732327 ], [ 6.6193514, 45.3732455 ], [ 6.6338779, 45.3692713 ], [ 6.6467722, 45.3675533 ], [ 6.6574434, 45.3683342 ], [ 6.6611116, 45.3717702 ], [ 6.6636682, 45.3754403 ], [ 6.6713833, 45.3902303 ], [ 6.6727172, 45.3967092 ], [ 6.671161, 45.402641 ], [ 6.6555989, 45.421057 ], [ 6.6518195, 45.4240217 ], [ 6.6432604, 45.4278443 ], [ 6.6273648, 45.4325248 ], [ 6.6228054, 45.4328011 ], [ 6.6161275, 45.4332548 ], [ 6.607801, 45.4337105 ], [ 6.5931281, 45.4341473 ], [ 6.5885929, 45.432088 ], [ 6.5867027, 45.4303872 ], [ 6.586103, 45.4277819 ], [ 6.5867027, 45.4255587 ], [ 6.5883484, 45.4234599 ], [ 6.5943509, 45.4188567 ], [ 6.5953875, 45.4176026 ], [ 6.5957292, 45.4161102 ], [ 6.5952359, 45.4147124 ], [ 6.5942587, 45.4134558 ], [ 6.5928567, 45.4123612 ], [ 6.5910161, 45.411444 ], [ 6.5890222, 45.4107721 ], [ 6.5867325, 45.410277 ], [ 6.5843562, 45.410091 ], [ 6.5820124, 45.4101954 ], [ 6.5792974, 45.4111126 ], [ 6.5772326, 45.4123023 ], [ 6.5708966, 45.4175303 ], [ 6.5684371, 45.4212401 ], [ 6.5674107, 45.4250671 ], [ 6.5685489, 45.436999 ], [ 6.5714657, 45.4492279 ], [ 6.5711448, 45.4499992 ], [ 6.5703873, 45.450522 ], [ 6.5686707, 45.4511986 ], [ 6.5677569, 45.4514028 ], [ 6.5662579, 45.4517378 ], [ 6.5649171, 45.4519136 ], [ 6.5635655, 45.4518691 ], [ 6.5615434, 45.4508687 ], [ 6.5611015, 45.4505737 ], [ 6.5606485, 45.4502714 ], [ 6.5598822, 45.4493506 ], [ 6.5526676, 45.4348452 ], [ 6.5525002, 45.4342703 ], [ 6.550978, 45.4290416 ], [ 6.5510669, 45.4228628 ], [ 6.55578, 45.3991403 ], [ 6.554535, 45.3947068 ], [ 6.5500887, 45.3937701 ], [ 6.5401289, 45.3947693 ], [ 6.5309695, 45.3940824 ], [ 6.5283916, 45.3926141 ], [ 6.527946, 45.3900857 ], [ 6.530596, 45.3857064 ], [ 6.5311305, 45.3831786 ], [ 6.5293662, 45.3808202 ], [ 6.522678, 45.3812969 ], [ 6.5137401, 45.3814082 ], [ 6.4995439, 45.3789413 ], [ 6.4975519, 45.3773022 ], [ 6.4974381, 45.3753433 ], [ 6.5018204, 45.3727046 ], [ 6.5188942, 45.3698659 ], [ 6.5263498, 45.3677868 ], [ 6.5309791, 45.3650231 ], [ 6.5344215, 45.3607127 ], [ 6.5368169, 45.3565099 ], [ 6.5368169, 45.3536461 ], [ 6.5352357, 45.3513685 ], [ 6.5205811, 45.3431671 ], [ 6.5148978, 45.3387054 ], [ 6.5130254, 45.3362278 ], [ 6.5125497, 45.3324845 ], [ 6.5131733, 45.3275059 ], [ 6.5118138, 45.3235285 ], [ 6.509183, 45.3208458 ], [ 6.4947998, 45.3143576 ], [ 6.4907759, 45.310284 ], [ 6.4893722, 45.304433 ], [ 6.4909269, 45.2996974 ], [ 6.4912456, 45.2987265 ], [ 6.4958853, 45.2933613 ], [ 6.4971845, 45.2927628 ], [ 6.4988325, 45.2920035 ], [ 6.4998176, 45.2915497 ], [ 6.5045696, 45.2903066 ], [ 6.5125348, 45.2913925 ], [ 6.516323, 45.292205 ], [ 6.5200383, 45.2933613 ], [ 6.5270942, 45.2987065 ], [ 6.5293235, 45.2998782 ], [ 6.5319791, 45.3006154 ], [ 6.5350717, 45.3002385 ], [ 6.5376328, 45.2986372 ], [ 6.5387636, 45.2967976 ], [ 6.5400663, 45.2832039 ], [ 6.5407176, 45.2720517 ], [ 6.5415954, 45.2695522 ], [ 6.5430053, 45.2674188 ], [ 6.5467965, 45.2628838 ], [ 6.5535268, 45.2555484 ], [ 6.5542842, 45.2529796 ], [ 6.5544949, 45.2502358 ], [ 6.5544252, 45.2479175 ], [ 6.5535268, 45.2454607 ], [ 6.5520436, 45.2433171 ], [ 6.5518768, 45.243076 ], [ 6.5478821, 45.2358604 ], [ 6.540761, 45.2213041 ], [ 6.5392679, 45.2146026 ], [ 6.5401405, 45.2125191 ], [ 6.540557, 45.2115246 ], [ 6.5436928, 45.2094948 ], [ 6.5450232, 45.2082444 ], [ 6.5457569, 45.2075548 ], [ 6.5463975, 45.2075905 ], [ 6.5471905, 45.2076347 ], [ 6.5478212, 45.2076699 ], [ 6.5495816, 45.2075122 ], [ 6.5510736, 45.2074702 ], [ 6.5539829, 45.2074281 ], [ 6.5575352, 45.2075321 ], [ 6.5605086, 45.2082933 ], [ 6.5618848, 45.2097148 ], [ 6.5634215, 45.2133233 ], [ 6.5644126, 45.2213175 ], [ 6.5654085, 45.2269087 ], [ 6.5679874, 45.233234 ], [ 6.5702632, 45.2426316 ], [ 6.5711738, 45.2441447 ], [ 6.5721885, 45.2445105 ], [ 6.5733592, 45.2445037 ], [ 6.5757996, 45.243837 ], [ 6.580207, 45.2429137 ], [ 6.5839222, 45.243324 ], [ 6.5865402, 45.2465698 ], [ 6.5877739, 45.2465809 ], [ 6.5889375, 45.245969 ], [ 6.5898878, 45.2455998 ], [ 6.5906847, 45.2454698 ], [ 6.5914185, 45.2454926 ], [ 6.5925711, 45.2458442 ], [ 6.5936619, 45.2463453 ], [ 6.5949893, 45.2467534 ], [ 6.5965718, 45.2469941 ], [ 6.5983558, 45.246952 ], [ 6.5991321, 45.2474767 ], [ 6.6002887, 45.2492846 ], [ 6.6006603, 45.2510844 ], [ 6.6007115, 45.2518988 ], [ 6.6015083, 45.2527402 ], [ 6.602362, 45.2547835 ], [ 6.6031892, 45.2569237 ], [ 6.6036232, 45.2573405 ], [ 6.6051182, 45.2579589 ], [ 6.6059508, 45.2586764 ], [ 6.6059745, 45.2600606 ], [ 6.605163, 45.2615499 ], [ 6.6037127, 45.2626589 ], [ 6.5966225, 45.2635411 ], [ 6.5956019, 45.2655196 ], [ 6.5960853, 45.2665655 ], [ 6.5978758, 45.2683045 ], [ 6.5970492, 45.2705369 ] ] ] } },
{ "type": "Feature", "properties": { "osm_id": "45146739", "name": "Les Deux Alpes", "access": null, "area": null, "description": null, "landuse": "winter_sports", "name.oc": null, "operator": null, "piste.difficulty": null, "piste.grooming": null, "piste.type": null, "source.name.oc": null, "sport": null, "website": "https://www.les2alpes.com", "wikidata": null, "wikipedia": null }, "geometry": { "type": "Polygon", "coordinates": [ [ [ 6.1195216, 45.0061184 ], [ 6.1196171, 45.0062481 ], [ 6.1196459, 45.006477 ], [ 6.1196288, 45.0066855 ], [ 6.1190262, 45.0073208 ], [ 6.1182929, 45.008538 ], [ 6.1187392, 45.0104765 ], [ 6.1207478, 45.0131812 ], [ 6.1225332, 45.0152322 ], [ 6.1240316, 45.0174216 ], [ 6.1236662, 45.0179866 ], [ 6.1240665, 45.0181561 ], [ 6.1238752, 45.0185051 ], [ 6.1232108, 45.0189565 ], [ 6.1223024, 45.0198622 ], [ 6.1220372, 45.0205977 ], [ 6.122384, 45.0212323 ], [ 6.122559, 45.0212266 ], [ 6.1235461, 45.0223927 ], [ 6.1238914, 45.023294 ], [ 6.1244315, 45.023786 ], [ 6.1263116, 45.0237222 ], [ 6.1277688, 45.0228735 ], [ 6.1280035, 45.0224955 ], [ 6.1282798, 45.0217652 ], [ 6.1294112, 45.020955 ], [ 6.1300404, 45.0205713 ], [ 6.1306418, 45.0198274 ], [ 6.1311357, 45.019166 ], [ 6.1312205, 45.0182691 ], [ 6.1306781, 45.017451 ], [ 6.1304479, 45.0163722 ], [ 6.1298402, 45.0153874 ], [ 6.1271783, 45.01547 ], [ 6.1266492, 45.0150883 ], [ 6.1266076, 45.0141442 ], [ 6.1271623, 45.0140223 ], [ 6.1270278, 45.0127569 ], [ 6.12668, 45.0126569 ], [ 6.1262749, 45.0108091 ], [ 6.1260875, 45.0096976 ], [ 6.1258215, 45.0095742 ], [ 6.1256372, 45.0088178 ], [ 6.1253583, 45.0075033 ], [ 6.1254225, 45.0064893 ], [ 6.1249232, 45.0065227 ], [ 6.1248434, 45.0065547 ], [ 6.1246852, 45.0063472 ], [ 6.1245984, 45.0062726 ], [ 6.1241296, 45.0063081 ], [ 6.1241551, 45.0062085 ], [ 6.1242599, 45.006113 ], [ 6.1243937, 45.0058477 ], [ 6.125146, 45.0057908 ], [ 6.1251571, 45.0054362 ], [ 6.1242778, 45.0044924 ], [ 6.1243769, 45.0042525 ], [ 6.1259545, 45.0037663 ], [ 6.1254212, 45.0025204 ], [ 6.1254828, 45.0023793 ], [ 6.1256079, 45.0022943 ], [ 6.1256417, 45.0021938 ], [ 6.1256351, 45.0021131 ], [ 6.1257175, 45.0018362 ], [ 6.1258506, 45.0017299 ], [ 6.1266294, 45.002005 ], [ 6.1289052, 45.0006401 ], [ 6.1305055, 44.999738 ], [ 6.1315298, 44.998538 ], [ 6.1323666, 44.9968993 ], [ 6.1335683, 44.9958523 ], [ 6.1357784, 44.9946991 ], [ 6.1370659, 44.9933637 ], [ 6.138666, 44.9922737 ], [ 6.1416144, 44.9915718 ], [ 6.1438465, 44.9916945 ], [ 6.1464858, 44.9924532 ], [ 6.1482024, 44.992438 ], [ 6.1505198, 44.9920131 ], [ 6.1535454, 44.9916793 ], [ 6.1557555, 44.9907536 ], [ 6.1582231, 44.9908902 ], [ 6.1590814, 44.9912544 ], [ 6.1612057, 44.9908143 ], [ 6.1623859, 44.9901162 ], [ 6.1646926, 44.9901 ], [ 6.1684388, 44.9906073 ], [ 6.1701126, 44.9904664 ], [ 6.1715074, 44.9899027 ], [ 6.1725037, 44.9888599 ], [ 6.1740978, 44.9860976 ], [ 6.1765687, 44.9838708 ], [ 6.1784019, 44.9835326 ], [ 6.1799365, 44.9839528 ], [ 6.1810321, 44.9846601 ], [ 6.1813509, 44.9855903 ], [ 6.1809524, 44.9888035 ], [ 6.1809807, 44.9895574 ], [ 6.1812712, 44.9903537 ], [ 6.1816415, 44.9907607 ], [ 6.1821878, 44.9910865 ], [ 6.1830456, 44.9915318 ], [ 6.1841691, 44.991587 ], [ 6.1854583, 44.991353 ], [ 6.1863059, 44.9905601 ], [ 6.1871266, 44.9904577 ], [ 6.1889505, 44.9917096 ], [ 6.1917508, 44.9929388 ], [ 6.1955595, 44.9943349 ], [ 6.1994648, 44.9949874 ], [ 6.2033486, 44.994608 ], [ 6.2057519, 44.9931361 ], [ 6.212117, 44.9922702 ], [ 6.2173238, 44.9921786 ], [ 6.2223192, 44.9927775 ], [ 6.2244485, 44.9936015 ], [ 6.2269707, 44.9955782 ], [ 6.2287688, 44.9964978 ], [ 6.2322092, 44.9966717 ], [ 6.2372732, 44.9977035 ], [ 6.2380019, 44.9990612 ], [ 6.2377453, 44.9999036 ], [ 6.2362218, 45.0004953 ], [ 6.2316084, 45.0019519 ], [ 6.2286558, 45.0021336 ], [ 6.2252683, 45.0021336 ], [ 6.2203266, 45.0029226 ], [ 6.2156639, 45.003768 ], [ 6.2119177, 45.0035707 ], [ 6.2095665, 45.0039652 ], [ 6.2092476, 45.0051205 ], [ 6.209965, 45.0073183 ], [ 6.2109613, 45.0094597 ], [ 6.210762, 45.010968 ], [ 6.2090085, 45.0116855 ], [ 6.2070558, 45.0109811 ], [ 6.2052624, 45.0092343 ], [ 6.2020344, 45.0067266 ], [ 6.1996432, 45.0046979 ], [ 6.198089, 45.0031199 ], [ 6.1966951, 45.0028556 ], [ 6.1950222, 45.0029579 ], [ 6.1930654, 45.003483 ], [ 6.1921125, 45.0047013 ], [ 6.191872, 45.0057686 ], [ 6.1912506, 45.0065911 ], [ 6.1903177, 45.0070084 ], [ 6.1842203, 45.0089525 ], [ 6.1816698, 45.0097132 ], [ 6.1803546, 45.0112065 ], [ 6.1793583, 45.0128406 ], [ 6.1768476, 45.0158269 ], [ 6.1743768, 45.0173482 ], [ 6.1699532, 45.0186441 ], [ 6.1654897, 45.0201089 ], [ 6.1600299, 45.0203061 ], [ 6.1593346, 45.0200789 ], [ 6.1563236, 45.0190948 ], [ 6.1541716, 45.0175454 ], [ 6.1491502, 45.0122771 ], [ 6.1471446, 45.0121136 ], [ 6.1458206, 45.0130342 ], [ 6.1449087, 45.0129204 ], [ 6.1427843, 45.0131859 ], [ 6.1421943, 45.0152792 ], [ 6.1415782, 45.0185032 ], [ 6.1404624, 45.0217428 ], [ 6.1390277, 45.0232639 ], [ 6.1364771, 45.0245878 ], [ 6.1338867, 45.0252075 ], [ 6.1317347, 45.025461 ], [ 6.1284269, 45.0259117 ], [ 6.1271517, 45.0267285 ], [ 6.1269125, 45.028672 ], [ 6.1288653, 45.0301084 ], [ 6.1299015, 45.0323616 ], [ 6.129224, 45.0337416 ], [ 6.1280436, 45.0343129 ], [ 6.1257568, 45.0340514 ], [ 6.1248801, 45.032953 ], [ 6.1238439, 45.0303901 ], [ 6.1232461, 45.028165 ], [ 6.1223295, 45.0265595 ], [ 6.121652, 45.0254046 ], [ 6.1193406, 45.0245596 ], [ 6.118703, 45.0224752 ], [ 6.1180255, 45.0203906 ], [ 6.1176269, 45.0195455 ], [ 6.1168697, 45.0188131 ], [ 6.1158807, 45.0187422 ], [ 6.1152235, 45.0190839 ], [ 6.1149967, 45.0195455 ], [ 6.1145924, 45.0214183 ], [ 6.113283, 45.0237709 ], [ 6.1123533, 45.0244842 ], [ 6.1113249, 45.0247954 ], [ 6.1099354, 45.0247568 ], [ 6.109194, 45.0244112 ], [ 6.1086203, 45.0239118 ], [ 6.1082616, 45.0229259 ], [ 6.1082616, 45.0210667 ], [ 6.1084609, 45.0180525 ], [ 6.1079029, 45.015179 ], [ 6.1075134, 45.0137677 ], [ 6.1068423, 45.0123809 ], [ 6.1060697, 45.011601 ], [ 6.1045553, 45.010474 ], [ 6.1040031, 45.0099905 ], [ 6.1034748, 45.0091796 ], [ 6.1032288, 45.0082569 ], [ 6.1033578, 45.0077642 ], [ 6.103838, 45.0072901 ], [ 6.1055915, 45.0068393 ], [ 6.1111708, 45.0061067 ], [ 6.1171531, 45.0058764 ], [ 6.1181374, 45.0064219 ], [ 6.1190493, 45.0062512 ], [ 6.1195216, 45.0061184 ] ] ] } },
{ "type": "Feature", "properties": { "osm_id": "45146740", "name": "La Grave", "access": null, "area": null, "description": null, "landuse": "winter_sports", "name.oc": null, "operator": null, "piste.difficulty": "freeride", "piste.grooming": "backcountry", "piste.type": "downhill", "source.name.oc": null, "sport": "skiing", "website": "https://www.la-grave.com", "wikidata": null, "wikipedia": null }, "geometry": { "type": "Polygon", "coordinates": [ [ [ 6.2485378, 45.0000452 ], [ 6.2479235, 44.9991089 ], [ 6.2475525, 44.9980808 ], [ 6.2473254, 44.9969273 ], [ 6.2476121, 44.9959826 ], [ 6.2485643, 44.9949122 ], [ 6.2507968, 44.9943533 ], [ 6.2559799, 44.9976274 ], [ 6.2607049, 44.9985439 ], [ 6.2674138, 45.0008261 ], [ 6.2722764, 45.0055592 ], [ 6.2773146, 45.0112164 ], [ 6.2808017, 45.0130213 ], [ 6.284787, 45.0135935 ], [ 6.2966501, 45.0191161 ], [ 6.3075153, 45.0216488 ], [ 6.3111892, 45.0264021 ], [ 6.3114383, 45.030627 ], [ 6.3103174, 45.0381518 ], [ 6.3089475, 45.0427718 ], [ 6.3066435, 45.0441797 ], [ 6.3049014, 45.0445954 ], [ 6.3041725, 45.0445053 ], [ 6.3040394, 45.0444735 ], [ 6.3030659, 45.0443846 ], [ 6.3020192, 45.0442891 ], [ 6.2999278, 45.0429194 ], [ 6.2969947, 45.0399278 ], [ 6.2930923, 45.0370261 ], [ 6.289241, 45.0356202 ], [ 6.2858742, 45.0350434 ], [ 6.2793958, 45.0337637 ], [ 6.2726114, 45.0306634 ], [ 6.2608162, 45.0230612 ], [ 6.2587613, 45.0190118 ], [ 6.2582009, 45.0165468 ], [ 6.2580141, 45.0134654 ], [ 6.25845, 45.0097676 ], [ 6.2583877, 45.0074343 ], [ 6.2567687, 45.0049688 ], [ 6.2539666, 45.0032077 ], [ 6.2498207, 45.0008449 ], [ 6.2485378, 45.0000452 ] ] ] } },
{ "type": "Feature", "properties": { "osm_id": "45438172", "name": "Montgenèvre", "access": null, "area": null, "description": null, "landuse": "winter_sports", "name.oc": null, "operator": null, "piste.difficulty": null, "piste.grooming": null, "piste.type": null, "source.name.oc": null, "sport": null, "website": "https://www.montgenevre.com", "wikidata": null, "wikipedia": null }, "geometry": { "type": "Polygon", "coordinates": [ [ [ 6.7149023, 44.9346258 ], [ 6.7129717, 44.9328142 ], [ 6.7118942, 44.9305257 ], [ 6.712433, 44.9290635 ], [ 6.7195716, 44.9204488 ], [ 6.72029, 44.9181598 ], [ 6.72029, 44.9172696 ], [ 6.7189879, 44.9152349 ], [ 6.7153064, 44.9119282 ], [ 6.7113555, 44.9091937 ], [ 6.7085269, 44.9065227 ], [ 6.7082127, 44.9034381 ], [ 6.7090657, 44.9004806 ], [ 6.7106371, 44.8942471 ], [ 6.7117146, 44.8933883 ], [ 6.7140942, 44.8927522 ], [ 6.7219062, 44.8937064 ], [ 6.7236572, 44.8947877 ], [ 6.729264, 44.8986929 ], [ 6.7291306, 44.9018175 ], [ 6.730302, 44.9035971 ], [ 6.7314693, 44.9042649 ], [ 6.7340284, 44.9043285 ], [ 6.7373059, 44.9034063 ], [ 6.7441751, 44.9020389 ], [ 6.747273, 44.9023251 ], [ 6.750326, 44.9035971 ], [ 6.7512749, 44.9048883 ], [ 6.7520321, 44.9059185 ], [ 6.7504607, 44.9123733 ], [ 6.7500118, 44.9198766 ], [ 6.7510893, 44.9234371 ], [ 6.7511791, 44.9293178 ], [ 6.7502362, 44.9332909 ], [ 6.7483952, 44.9360708 ], [ 6.7471915, 44.9378879 ], [ 6.7452527, 44.9406008 ], [ 6.7414813, 44.9419037 ], [ 6.7390727, 44.9476292 ], [ 6.7349264, 44.9569333 ], [ 6.7357794, 44.9593478 ], [ 6.7351509, 44.9613175 ], [ 6.7324121, 44.9634142 ], [ 6.7272939, 44.9638589 ], [ 6.7214124, 44.9632236 ], [ 6.7202276, 44.9632958 ], [ 6.7193417, 44.9631843 ], [ 6.719134, 44.962412 ], [ 6.7188862, 44.9621262 ], [ 6.7146329, 44.9601738 ], [ 6.7085718, 44.9541692 ], [ 6.7061923, 44.9504517 ], [ 6.7055189, 44.9469882 ], [ 6.7063719, 44.9438422 ], [ 6.7108616, 44.9420944 ], [ 6.7169676, 44.9394567 ], [ 6.7173268, 44.9375816 ], [ 6.7166533, 44.9358336 ], [ 6.7149023, 44.9346258 ] ] ] } },
{ "type": "Feature", "properties": { "osm_id": "45438175", "name": "Sansicario", "access": null, "area": null, "description": null, "landuse": "winter_sports", "name.oc": null, "operator": "Vialattea", "piste.difficulty": null, "piste.grooming": null, "piste.type": null, "source.name.oc": null, "sport": null, "website": "https://www.vialattea.it", "wikidata": null, "wikipedia": null }, "geometry": { "type": "Polygon", "coordinates": [ [ [ 6.8407274, 44.9742299 ], [ 6.8459865, 44.9750577 ], [ 6.8479552, 44.9756361 ], [ 6.8494595, 44.9764529 ], [ 6.8513661, 44.9784801 ], [ 6.8531734, 44.9805181 ], [ 6.8534406, 44.9808194 ], [ 6.8537221, 44.9816914 ], [ 6.8536955, 44.9825966 ], [ 6.8695521, 44.973284 ], [ 6.8649565, 44.9557741 ], [ 6.8606783, 44.9558209 ], [ 6.8563562, 44.9554087 ], [ 6.851358, 44.9547623 ], [ 6.8462639, 44.953744 ], [ 6.8402839, 44.9525113 ], [ 6.832111, 44.9529149 ], [ 6.8229796, 44.9490422 ], [ 6.8157319, 44.9477365 ], [ 6.7993306, 44.9448503 ], [ 6.7970479, 44.9448354 ], [ 6.7955039, 44.9473227 ], [ 6.7957536, 44.9481576 ], [ 6.7998045, 44.9546624 ], [ 6.8049724, 44.9615276 ], [ 6.8130432, 44.968527 ], [ 6.8144806, 44.9695789 ], [ 6.8164177, 44.970345 ], [ 6.8187662, 44.9710165 ], [ 6.8281268, 44.9729994 ], [ 6.8407274, 44.9742299 ] ] ] } },
{ "type": "Feature", "properties": { "osm_id": "45438982", "name": "Alpe d'Huez Grand Domaine", "access": null, "area": null, "description": null, "landuse": "winter_sports", "name.oc": null, "operator": null, "piste.difficulty": null, "piste.grooming": null, "piste.type": null, "source.name.oc": null, "sport": null, "website": "https://www.alpedhuez.com/", "wikidata": null, "wikipedia": null }, "geometry": { "type": "Polygon", "coordinates": [ [ [ 6.1015452, 45.1718221 ], [ 6.1075925, 45.1719825 ], [ 6.1134231, 45.1710572 ], [ 6.1183109, 45.1697789 ], [ 6.1208176, 45.1673531 ], [ 6.1210613, 45.1643037 ], [ 6.1200652, 45.1614703 ], [ 6.1179365, 45.1587972 ], [ 6.1115687, 45.1551476 ], [ 6.1037719, 45.1482573 ], [ 6.1008719, 45.1429272 ], [ 6.1000936, 45.1394271 ], [ 6.1057367, 45.13476 ], [ 6.1145906, 45.1297493 ], [ 6.1299517, 45.1283863 ], [ 6.1372248, 45.125434 ], [ 6.1404659, 45.1205043 ], [ 6.1401546, 45.1146272 ], [ 6.1359514, 45.1089693 ], [ 6.1333244, 45.098421 ], [ 6.1335676, 45.0930122 ], [ 6.1372162, 45.0849409 ], [ 6.1374595, 45.0823647 ], [ 6.1341757, 45.0781567 ], [ 6.1296818, 45.0748014 ], [ 6.1227435, 45.0720588 ], [ 6.1043825, 45.0675645 ], [ 6.1030929, 45.0672488 ], [ 6.0921711, 45.0617731 ], [ 6.0827468, 45.0536976 ], [ 6.0779873, 45.0474031 ], [ 6.0749468, 45.0459423 ], [ 6.0722465, 45.0457549 ], [ 6.0687843, 45.0465322 ], [ 6.0665551, 45.0483483 ], [ 6.0628505, 45.055417 ], [ 6.059537, 45.0633275 ], [ 6.0577188, 45.0701299 ], [ 6.0562683, 45.0747006 ], [ 6.0522664, 45.0808657 ], [ 6.0469735, 45.0861226 ], [ 6.0425334, 45.089156 ], [ 6.0372735, 45.0911211 ], [ 6.0345162, 45.09228 ], [ 6.0330117, 45.0943982 ], [ 6.0318619, 45.0958937 ], [ 6.0320585, 45.0970783 ], [ 6.0328504, 45.0982177 ], [ 6.0343898, 45.0995519 ], [ 6.0376445, 45.1005872 ], [ 6.0456648, 45.1024157 ], [ 6.0634988, 45.1078304 ], [ 6.0709088, 45.1133236 ], [ 6.071407, 45.1159162 ], [ 6.0674218, 45.1214527 ], [ 6.0648064, 45.1269446 ], [ 6.0654291, 45.1301077 ], [ 6.0687294, 45.1326117 ], [ 6.0748318, 45.1341053 ], [ 6.076949, 45.1354231 ], [ 6.0820307, 45.1410414 ], [ 6.0822756, 45.1427765 ], [ 6.0814946, 45.1443396 ], [ 6.0742091, 45.1497415 ], [ 6.0724805, 45.1523869 ], [ 6.0723301, 45.1539814 ], [ 6.0734798, 45.1555217 ], [ 6.0779403, 45.1587383 ], [ 6.0861127, 45.163733 ], [ 6.0877683, 45.1646875 ], [ 6.0886488, 45.1655185 ], [ 6.0903243, 45.1661609 ], [ 6.0961105, 45.1702659 ], [ 6.0985195, 45.1712069 ], [ 6.1015452, 45.1718221 ] ] ] } },
{ "type": "Feature", "properties": { "osm_id": "45524871", "name": "Aussois", "access": null, "area": null, "description": null, "landuse": "winter_sports", "name.oc": null, "operator": null, "piste.difficulty": null, "piste.grooming": null, "piste.type": null, "source.name.oc": null, "sport": null, "website": "https://www.aussois.com", "wikidata": null, "wikipedia": null }, "geometry": { "type": "Polygon", "coordinates": [ [ [ 6.7376772, 45.2312829 ], [ 6.7390618, 45.231355 ], [ 6.740637, 45.2318815 ], [ 6.7411018, 45.2325723 ], [ 6.7416573, 45.2331085 ], [ 6.7423278, 45.233543 ], [ 6.7433722, 45.2341054 ], [ 6.745008, 45.2349025 ], [ 6.7452735, 45.2356845 ], [ 6.7464149, 45.2370503 ], [ 6.7486446, 45.2420707 ], [ 6.7514116, 45.2502877 ], [ 6.7465537, 45.2605951 ], [ 6.7428395, 45.265829 ], [ 6.7407318, 45.2696053 ], [ 6.7348717, 45.270155 ], [ 6.7305463, 45.2697144 ], [ 6.7273592, 45.2680321 ], [ 6.7240583, 45.2640265 ], [ 6.723546, 45.2597001 ], [ 6.7270517, 45.2522953 ], [ 6.7278145, 45.2464786 ], [ 6.7283263, 45.2447882 ], [ 6.7309447, 45.2361396 ], [ 6.7320261, 45.2335345 ], [ 6.7335741, 45.2322407 ], [ 6.7376772, 45.2312829 ] ] ] } },
{ "type": "Feature", "properties": { "osm_id": "49393402", "name": "Claviere", "access": null, "area": null, "description": null, "landuse": "winter_sports", "name.oc": null, "operator": "Vialattea", "piste.difficulty": null, "piste.grooming": null, "piste.type": null, "source.name.oc": null, "sport": null, "website": "https://www.vialattea.it", "wikidata": null, "wikipedia": null }, "geometry": { "type": "Polygon", "coordinates": [ [ [ 6.7520321, 44.9059185 ], [ 6.75619, 44.9043075 ], [ 6.7652392, 44.9020609 ], [ 6.7692191, 44.9025806 ], [ 6.7713768, 44.9136583 ], [ 6.7810616, 44.9168285 ], [ 6.7853184, 44.9182388 ], [ 6.7888422, 44.9194099 ], [ 6.7941079, 44.9227834 ], [ 6.797305, 44.9293079 ], [ 6.796302, 44.9340121 ], [ 6.7926191, 44.9401693 ], [ 6.7925179, 44.9409352 ], [ 6.7926329, 44.9416827 ], [ 6.7929325, 44.9423324 ], [ 6.7957535, 44.9443291 ], [ 6.7970479, 44.9448354 ], [ 6.7955039, 44.9473227 ], [ 6.7945109, 44.9473449 ], [ 6.7895038, 44.9472358 ], [ 6.784086, 44.9468724 ], [ 6.7812358, 44.9460182 ], [ 6.7788728, 44.9447992 ], [ 6.7777106, 44.9435921 ], [ 6.7760469, 44.9416299 ], [ 6.7749274, 44.9403907 ], [ 6.7735139, 44.9394889 ], [ 6.7705786, 44.9386683 ], [ 6.7671234, 44.938236 ], [ 6.7627712, 44.9372543 ], [ 6.7530685, 44.9398662 ], [ 6.7522004, 44.9392788 ], [ 6.7515909, 44.9387454 ], [ 6.7509432, 44.9382059 ], [ 6.7507406, 44.9380372 ], [ 6.7503694, 44.9371653 ], [ 6.7498807, 44.9366703 ], [ 6.7491812, 44.9362426 ], [ 6.7483952, 44.9360708 ], [ 6.7502362, 44.9332909 ], [ 6.7511791, 44.9293178 ], [ 6.7510893, 44.9234371 ], [ 6.7500118, 44.9198766 ], [ 6.7504607, 44.9123733 ], [ 6.7520321, 44.9059185 ] ] ] } },
{ "type": "Feature", "properties": { "osm_id": "294826109", "name": "Domaine de Beldina", "access": null, "area": null, "description": null, "landuse": "winter_sports", "name.oc": null, "operator": null, "piste.difficulty": null, "piste.grooming": null, "piste.type": null, "source.name.oc": null, "sport": null, "website": "http://www.skidefond-prapoutel.com/", "wikidata": null, "wikipedia": null }, "geometry": { "type": "Polygon", "coordinates": [ [ [ 5.9857633, 45.2445006 ], [ 5.9858357, 45.2463005 ], [ 5.9865833, 45.2468269 ], [ 5.9881027, 45.2470137 ], [ 5.9926701, 45.2456673 ], [ 5.9938262, 45.2456424 ], [ 5.9940173, 45.2465198 ], [ 5.9934716, 45.2486209 ], [ 5.9931135, 45.2496174 ], [ 5.9935588, 45.2499688 ], [ 5.9951107, 45.2491884 ], [ 5.9953747, 45.2476674 ], [ 5.99581, 45.2470278 ], [ 5.9963876, 45.2462496 ], [ 5.9980276, 45.2448997 ], [ 5.9985341, 45.2443393 ], [ 5.9985372, 45.2441066 ], [ 5.9985396, 45.2438449 ], [ 5.9983945, 45.2434573 ], [ 5.9983831, 45.243323 ], [ 5.9983747, 45.2432879 ], [ 5.9983539, 45.2432451 ], [ 5.9983411, 45.2432186 ], [ 5.9982514, 45.2431752 ], [ 5.9967614, 45.2430063 ], [ 5.9937106, 45.2437365 ], [ 5.9935673, 45.2437431 ], [ 5.9929751, 45.2437705 ], [ 5.9929687, 45.2436902 ], [ 5.9929148, 45.2430148 ], [ 5.9948372, 45.2412987 ], [ 5.9955875, 45.2406383 ], [ 5.9980091, 45.2400619 ], [ 5.999254, 45.238753 ], [ 5.9992028, 45.237348 ], [ 5.9984013, 45.2347421 ], [ 5.9972758, 45.2340336 ], [ 5.9951441, 45.233253 ], [ 5.9940186, 45.2317518 ], [ 5.9930977, 45.2297582 ], [ 5.9933023, 45.2284731 ], [ 5.9924156, 45.2281127 ], [ 5.991273, 45.2285691 ], [ 5.9900281, 45.2309592 ], [ 5.9889537, 45.2315957 ], [ 5.9884762, 45.2326765 ], [ 5.9873848, 45.2368677 ], [ 5.9873337, 45.2392694 ], [ 5.9867197, 45.2421512 ], [ 5.9857633, 45.2445006 ] ] ] } },
{ "type": "Feature", "properties": { "osm_id": "294826110", "name": "Les 7 Laux", "access": null, "area": null, "description": null, "landuse": "winter_sports", "name.oc": null, "operator": null, "piste.difficulty": null, "piste.grooming": null, "piste.type": null, "source.name.oc": null, "sport": null, "website": "http://www.les7laux.com/", "wikidata": null, "wikipedia": null }, "geometry": { "type": "Polygon", "coordinates": [ [ [ 5.9916988, 45.2569385 ], [ 5.9916747, 45.2544004 ], [ 5.9916023, 45.2532204 ], [ 5.9916867, 45.2521084 ], [ 5.992362, 45.2511491 ], [ 5.9927061, 45.2507972 ], [ 5.9935588, 45.2499688 ], [ 5.9951107, 45.2491884 ], [ 5.9964579, 45.2476997 ], [ 5.9978051, 45.246523 ], [ 5.9989477, 45.2457306 ], [ 6.0012328, 45.2454664 ], [ 6.0020344, 45.2450702 ], [ 6.004149, 45.2439175 ], [ 6.0064341, 45.2425127 ], [ 6.0116013, 45.2404114 ], [ 6.0143298, 45.2400631 ], [ 6.0156771, 45.2404474 ], [ 6.0176502, 45.2414356 ], [ 6.0193265, 45.2422365 ], [ 6.0211341, 45.2425727 ], [ 6.023658, 45.2425247 ], [ 6.027171, 45.2421525 ], [ 6.0291492, 45.242957 ], [ 6.0312298, 45.2432571 ], [ 6.0342653, 45.2435453 ], [ 6.0362776, 45.2441817 ], [ 6.0411778, 45.2458445 ], [ 6.0430989, 45.2491524 ], [ 6.0450089, 45.2521058 ], [ 6.0484707, 45.2565836 ], [ 6.0489482, 45.2594526 ], [ 6.050159, 45.260677 ], [ 6.0507388, 45.2623575 ], [ 6.0516086, 45.2655743 ], [ 6.0528364, 45.2680227 ], [ 6.0542604, 45.269571 ], [ 6.0552409, 45.2702011 ], [ 6.0558548, 45.2716052 ], [ 6.0561618, 45.2721453 ], [ 6.0561106, 45.2726493 ], [ 6.0557696, 45.2731054 ], [ 6.0548316, 45.2734414 ], [ 6.0533121, 45.2733082 ], [ 6.0532732, 45.2733048 ], [ 6.0518624, 45.2721082 ], [ 6.0498848, 45.2759268 ], [ 6.0502103, 45.2774712 ], [ 6.0512474, 45.2794652 ], [ 6.0513077, 45.2798046 ], [ 6.0512112, 45.2801101 ], [ 6.0500898, 45.2801779 ], [ 6.0439158, 45.2792276 ], [ 6.0423843, 45.2782009 ], [ 6.0411423, 45.2765717 ], [ 6.0399606, 45.2752565 ], [ 6.0380553, 45.2738224 ], [ 6.036765, 45.2733726 ], [ 6.0349683, 45.2733472 ], [ 6.0335333, 45.2729993 ], [ 6.0331716, 45.2723289 ], [ 6.0330389, 45.2712936 ], [ 6.0325445, 45.270428 ], [ 6.0308805, 45.2690277 ], [ 6.0295058, 45.2677971 ], [ 6.0273835, 45.266906 ], [ 6.0248632, 45.2664902 ], [ 6.0225359, 45.2660064 ], [ 6.0211642, 45.2655937 ], [ 6.0206726, 45.2652575 ], [ 6.0193595, 45.2650426 ], [ 6.0176976, 45.2653342 ], [ 6.0165624, 45.2654084 ], [ 6.0159575, 45.2654477 ], [ 6.0154206, 45.2651797 ], [ 6.0151348, 45.2648967 ], [ 6.0150966, 45.2647116 ], [ 6.0156935, 45.2641865 ], [ 6.0166914, 45.2637334 ], [ 6.0178973, 45.2635806 ], [ 6.018464, 45.2632326 ], [ 6.0192538, 45.2625324 ], [ 6.019366, 45.261861 ], [ 6.0194347, 45.2614502 ], [ 6.0193563, 45.2609325 ], [ 6.0182048, 45.2604317 ], [ 6.0167517, 45.2600031 ], [ 6.0159498, 45.2588911 ], [ 6.0154373, 45.2580932 ], [ 6.0149808, 45.2569736 ], [ 6.0154071, 45.2556111 ], [ 6.015211, 45.2550649 ], [ 6.0142646, 45.2539304 ], [ 6.0125081, 45.2526339 ], [ 6.0104531, 45.2518115 ], [ 6.0092082, 45.2519976 ], [ 6.0078951, 45.2526639 ], [ 6.0068293, 45.2535883 ], [ 6.0058913, 45.2545307 ], [ 6.0039728, 45.255221 ], [ 6.0018241, 45.2560073 ], [ 6.0005195, 45.2567155 ], [ 5.9999227, 45.2572497 ], [ 5.9995048, 45.258006 ], [ 5.9990785, 45.258144 ], [ 5.997808, 45.25794 ], [ 5.9967422, 45.2576939 ], [ 5.9943291, 45.2576759 ], [ 5.9931904, 45.2576614 ], [ 5.9927924, 45.2576274 ], [ 5.9918036, 45.2571436 ], [ 5.9916988, 45.2569385 ] ] ] } },
{ "type": "Feature", "properties": { "osm_id": "296909728", "name": "Les Orres", "access": null, "area": null, "description": null, "landuse": "winter_sports", "name.oc": null, "operator": "SEMLORE", "piste.difficulty": null, "piste.grooming": null, "piste.type": null, "source.name.oc": null, "sport": null, "website": "https://www.lesorres.com", "wikidata": null, "wikipedia": null }, "geometry": { "type": "Polygon", "coordinates": [ [ [ 6.5576931, 44.4996156 ], [ 6.557145, 44.4984428 ], [ 6.5558266, 44.4978972 ], [ 6.5556171, 44.4975358 ], [ 6.5552792, 44.4970766 ], [ 6.5549339, 44.4965019 ], [ 6.5556277, 44.4958857 ], [ 6.5562003, 44.4949653 ], [ 6.5565681, 44.494559 ], [ 6.5570917, 44.4942602 ], [ 6.5574234, 44.493864 ], [ 6.5575749, 44.493257 ], [ 6.5573724, 44.4923867 ], [ 6.5573902, 44.4922903 ], [ 6.5578013, 44.4910916 ], [ 6.5569142, 44.4905205 ], [ 6.5561209, 44.4895122 ], [ 6.5557892, 44.488689 ], [ 6.5555873, 44.4880819 ], [ 6.5557315, 44.4878247 ], [ 6.5551546, 44.4872484 ], [ 6.5553781, 44.4860548 ], [ 6.5530487, 44.4883186 ], [ 6.5521545, 44.4881539 ], [ 6.551664, 44.4875571 ], [ 6.5546786, 44.4858078 ], [ 6.5547476, 44.4856472 ], [ 6.5547523, 44.4853603 ], [ 6.5546168, 44.4849204 ], [ 6.55448, 44.4848367 ], [ 6.5540011, 44.4848021 ], [ 6.5536012, 44.4847115 ], [ 6.5535896, 44.4845113 ], [ 6.5538248, 44.4842332 ], [ 6.5539149, 44.4839014 ], [ 6.5537955, 44.4836835 ], [ 6.5537338, 44.4830809 ], [ 6.5543151, 44.4826585 ], [ 6.5546974, 44.4825917 ], [ 6.554738, 44.482549 ], [ 6.5551084, 44.4821594 ], [ 6.5548372, 44.4816711 ], [ 6.553943, 44.4812594 ], [ 6.5525006, 44.4795923 ], [ 6.5533949, 44.477781 ], [ 6.5507698, 44.4722233 ], [ 6.5513756, 44.4704735 ], [ 6.5541742, 44.4693429 ], [ 6.5561931, 44.4691148 ], [ 6.5579816, 44.467962 ], [ 6.5610971, 44.4677973 ], [ 6.564328, 44.4660268 ], [ 6.5715109, 44.4659033 ], [ 6.574886, 44.4663562 ], [ 6.5781746, 44.4655739 ], [ 6.5801074, 44.4663974 ], [ 6.5804824, 44.4680444 ], [ 6.582444, 44.4710705 ], [ 6.5824152, 44.4724497 ], [ 6.5815497, 44.4736025 ], [ 6.5819824, 44.4742817 ], [ 6.5846364, 44.4745699 ], [ 6.5865403, 44.4762166 ], [ 6.5874923, 44.4794482 ], [ 6.5865692, 44.481774 ], [ 6.5856749, 44.4815064 ], [ 6.5833383, 44.4843878 ], [ 6.5818671, 44.4850258 ], [ 6.5818959, 44.4871867 ], [ 6.5792131, 44.4879687 ], [ 6.5764726, 44.4895533 ], [ 6.57679, 44.4909938 ], [ 6.5758957, 44.4923932 ], [ 6.5736168, 44.4935249 ], [ 6.5737322, 44.4952946 ], [ 6.5722609, 44.4973111 ], [ 6.5696647, 44.4975786 ], [ 6.5678762, 44.498237 ], [ 6.5662896, 44.4983193 ], [ 6.5661453, 44.4987308 ], [ 6.5663473, 44.4996773 ], [ 6.5636068, 44.4992864 ], [ 6.561876, 44.4983193 ], [ 6.5612702, 44.498093 ], [ 6.5584431, 44.4996773 ], [ 6.5576931, 44.4996156 ] ] ] } },
{ "type": "Feature", "properties": { "osm_id": "296979402", "name": "Vars/Risoul", "access": null, "area": null, "description": null, "landuse": "winter_sports", "name.oc": null, "operator": null, "piste.difficulty": null, "piste.grooming": null, "piste.type": null, "source.name.oc": null, "sport": null, "website": "https://www.vars.com", "wikidata": null, "wikipedia": null }, "geometry": { "type": "Polygon", "coordinates": [ [ [ 6.6033383, 44.6260256 ], [ 6.6159435, 44.6229497 ], [ 6.6276483, 44.6275635 ], [ 6.641334, 44.6261538 ], [ 6.6490772, 44.6162846 ], [ 6.651058, 44.6055164 ], [ 6.651058, 44.5991057 ], [ 6.6577207, 44.5991057 ], [ 6.6726669, 44.6117981 ], [ 6.6969769, 44.5970542 ], [ 6.7072412, 44.5723017 ], [ 6.7037545, 44.5712692 ], [ 6.6980574, 44.5660157 ], [ 6.6926552, 44.5575478 ], [ 6.6791496, 44.5578044 ], [ 6.6717665, 44.5552381 ], [ 6.6638433, 44.5596007 ], [ 6.6577207, 44.5545965 ], [ 6.6460159, 44.5551098 ], [ 6.6348513, 44.5649893 ], [ 6.6247672, 44.5816653 ], [ 6.626928, 44.5944897 ], [ 6.6184646, 44.6016701 ], [ 6.6042387, 44.6085932 ], [ 6.6033383, 44.6260256 ] ] ] } },
{ "type": "Feature", "properties": { "osm_id": "331209851", "name": "Autrans - Grand domaine la Sure", "access": null, "area": null, "description": null, "landuse": "winter_sports", "name.oc": null, "operator": null, "piste.difficulty": null, "piste.grooming": null, "piste.type": null, "source.name.oc": null, "sport": null, "website": null, "wikidata": null, "wikipedia": null }, "geometry": { "type": "Polygon", "coordinates": [ [ [ 5.5801803, 45.2323153 ], [ 5.5800935, 45.2342517 ], [ 5.5804408, 45.235726 ], [ 5.5806048, 45.2373361 ], [ 5.5806048, 45.2387221 ], [ 5.5810051, 45.2391366 ], [ 5.5817282, 45.2392615 ], [ 5.5842934, 45.2385217 ], [ 5.5867493, 45.2364272 ], [ 5.5881956, 45.2358891 ], [ 5.5896965, 45.2351301 ], [ 5.5902696, 45.2343518 ], [ 5.5907471, 45.2340347 ], [ 5.593667, 45.2340732 ], [ 5.5949086, 45.2334486 ], [ 5.5948677, 45.2324877 ], [ 5.5939535, 45.2313635 ], [ 5.5934077, 45.2271739 ], [ 5.592439, 45.2260111 ], [ 5.5928074, 45.2243582 ], [ 5.5933259, 45.2231953 ], [ 5.5919205, 45.2206005 ], [ 5.5902559, 45.2184765 ], [ 5.5877999, 45.2177076 ], [ 5.5827652, 45.2170732 ], [ 5.5796134, 45.2175057 ], [ 5.5792177, 45.218044 ], [ 5.5790949, 45.2190531 ], [ 5.5796952, 45.2213213 ], [ 5.5800773, 45.2230704 ], [ 5.5806576, 45.2251476 ], [ 5.5807734, 45.2257456 ], [ 5.5806866, 45.2270095 ], [ 5.5806962, 45.2290956 ], [ 5.5803296, 45.2316028 ], [ 5.5801803, 45.2323153 ] ] ] } },
{ "type": "Feature", "properties": { "osm_id": "331655170", "name": "Montagnes de Lans", "access": null, "area": null, "description": null, "landuse": "winter_sports", "name.oc": null, "operator": null, "piste.difficulty": null, "piste.grooming": null, "piste.type": null, "source.name.oc": null, "sport": null, "website": "https://www.lansenvercors.com", "wikidata": null, "wikipedia": null }, "geometry": { "type": "Polygon", "coordinates": [ [ [ 5.6131592, 45.0979931 ], [ 5.6167109, 45.1007323 ], [ 5.6193637, 45.1025429 ], [ 5.6217417, 45.1057234 ], [ 5.6226445, 45.1087094 ], [ 5.6234971, 45.1102028 ], [ 5.6237263, 45.1107868 ], [ 5.6238054, 45.111062 ], [ 5.6238268, 45.111257 ], [ 5.6238788, 45.1113215 ], [ 5.6238186, 45.1114796 ], [ 5.6237673, 45.1115415 ], [ 5.6237957, 45.1116856 ], [ 5.6238269, 45.1117688 ], [ 5.6238343, 45.1118572 ], [ 5.623814, 45.1123365 ], [ 5.6238718, 45.1126164 ], [ 5.6242241, 45.1126767 ], [ 5.6241256, 45.1130175 ], [ 5.6241501, 45.1130833 ], [ 5.6241205, 45.1132223 ], [ 5.6242534, 45.113566 ], [ 5.6243072, 45.1137315 ], [ 5.6243227, 45.1140089 ], [ 5.6243112, 45.1143366 ], [ 5.6243198, 45.1144042 ], [ 5.6245032, 45.1144736 ], [ 5.6246077, 45.1145961 ], [ 5.6246755, 45.114761 ], [ 5.6246969, 45.1149114 ], [ 5.6247335, 45.1151146 ], [ 5.6248198, 45.1154629 ], [ 5.6250151, 45.1158222 ], [ 5.6251087, 45.1160608 ], [ 5.6253024, 45.1167771 ], [ 5.6253778, 45.1168136 ], [ 5.6254119, 45.1170839 ], [ 5.625443, 45.1171912 ], [ 5.6251121, 45.1191212 ], [ 5.6243009, 45.1216661 ], [ 5.6238953, 45.1224241 ], [ 5.6235226, 45.1229191 ], [ 5.6226018, 45.1231821 ], [ 5.6212886, 45.1235973 ], [ 5.6198722, 45.1233445 ], [ 5.617055, 45.1233213 ], [ 5.6137878, 45.1207788 ], [ 5.6118699, 45.120645 ], [ 5.6104339, 45.1192527 ], [ 5.6100718, 45.1165627 ], [ 5.6092502, 45.1161251 ], [ 5.6089246, 45.1156875 ], [ 5.6089479, 45.1144404 ], [ 5.6091727, 45.1129853 ], [ 5.6091394, 45.1120663 ], [ 5.6088653, 45.1116679 ], [ 5.6080706, 45.1111109 ], [ 5.6077253, 45.1101825 ], [ 5.6076019, 45.1088629 ], [ 5.6077182, 45.1076429 ], [ 5.6077238, 45.1057579 ], [ 5.6083693, 45.1037312 ], [ 5.6085566, 45.101417 ], [ 5.6085708, 45.1012418 ], [ 5.6087114, 45.0995283 ], [ 5.6089964, 45.0973771 ], [ 5.6090004, 45.0963865 ], [ 5.6091555, 45.0959707 ], [ 5.6094674, 45.0957965 ], [ 5.6100779, 45.0958448 ], [ 5.6111708, 45.0964358 ], [ 5.6131592, 45.0979931 ] ] ] } },
{ "type": "Feature", "properties": { "osm_id": "539977729", "name": "Chaillol", "access": null, "area": null, "description": null, "landuse": "winter_sports", "name.oc": null, "operator": null, "piste.difficulty": null, "piste.grooming": null, "piste.type": null, "source.name.oc": null, "sport": null, "website": "https://www.chaillol.fr", "wikidata": null, "wikipedia": null }, "geometry": { "type": "Polygon", "coordinates": [ [ [ 6.1525583, 44.6902118 ], [ 6.1577511, 44.6872523 ], [ 6.1594248, 44.6891515 ], [ 6.1604869, 44.6897465 ], [ 6.1613989, 44.6905321 ], [ 6.1635339, 44.6909058 ], [ 6.1656797, 44.6904711 ], [ 6.1667101, 44.688669 ], [ 6.1668491, 44.6884803 ], [ 6.1674714, 44.6878625 ], [ 6.1686623, 44.6869548 ], [ 6.1685765, 44.6863141 ], [ 6.1676109, 44.6857496 ], [ 6.1656904, 44.685742 ], [ 6.1647892, 44.6853605 ], [ 6.1637163, 44.6833963 ], [ 6.1659694, 44.6824924 ], [ 6.1688018, 44.6832857 ], [ 6.1701, 44.6870463 ], [ 6.1706793, 44.6891134 ], [ 6.1698747, 44.6901355 ], [ 6.1695528, 44.6926143 ], [ 6.1671173, 44.6957184 ], [ 6.1649609, 44.6959015 ], [ 6.160326, 44.6948261 ], [ 6.1586738, 44.6934151 ], [ 6.1574292, 44.6933999 ], [ 6.1558092, 44.6938423 ], [ 6.1542749, 44.6982733 ], [ 6.1532557, 44.6991961 ], [ 6.1520541, 44.6992189 ], [ 6.1492967, 44.6979149 ], [ 6.1493826, 44.69687 ], [ 6.1517537, 44.6955125 ], [ 6.1505413, 44.6938117 ], [ 6.1503482, 44.6930643 ], [ 6.1512387, 44.6922711 ], [ 6.1525583, 44.6919889 ], [ 6.1525583, 44.6902118 ] ] ] } },
{ "type": "Feature", "properties": { "osm_id": "540000677", "name": "Ancelle", "access": null, "area": null, "description": null, "landuse": "winter_sports", "name.oc": null, "operator": null, "piste.difficulty": null, "piste.grooming": null, "piste.type": null, "source.name.oc": null, "sport": null, "website": "https://www.ancelleski.fr", "wikidata": null, "wikipedia": null }, "geometry": { "type": "Polygon", "coordinates": [ [ [ 6.1989283, 44.6049593 ], [ 6.2010741, 44.6028358 ], [ 6.2015676, 44.6026754 ], [ 6.2045073, 44.6029198 ], [ 6.2059772, 44.6028587 ], [ 6.2085307, 44.6028969 ], [ 6.2116849, 44.6003455 ], [ 6.2154078, 44.6009872 ], [ 6.2175321, 44.6016441 ], [ 6.2189269, 44.6024538 ], [ 6.2209225, 44.6022629 ], [ 6.2250423, 44.6015601 ], [ 6.22751, 44.6016823 ], [ 6.2286472, 44.6019268 ], [ 6.2306321, 44.6040962 ], [ 6.2299991, 44.6053031 ], [ 6.2291407, 44.6058836 ], [ 6.2243986, 44.6055551 ], [ 6.2212551, 44.6045087 ], [ 6.2178969, 44.6050892 ], [ 6.2156868, 44.6070141 ], [ 6.2087345, 44.6044857 ], [ 6.2081015, 44.6046003 ], [ 6.2077045, 44.6050739 ], [ 6.2106657, 44.6066551 ], [ 6.2143564, 44.6093055 ], [ 6.2171674, 44.611047 ], [ 6.2135088, 44.6107185 ], [ 6.2128651, 44.6119329 ], [ 6.2140667, 44.6140103 ], [ 6.2135303, 44.6149955 ], [ 6.2118432, 44.6159683 ], [ 6.21117, 44.616439 ], [ 6.2087989, 44.6173554 ], [ 6.2077314, 44.616901 ], [ 6.2074202, 44.6160533 ], [ 6.2071681, 44.614102 ], [ 6.2065351, 44.6139798 ], [ 6.2054729, 44.6151406 ], [ 6.2040567, 44.6160953 ], [ 6.2038529, 44.6176991 ], [ 6.2028175, 44.6199156 ], [ 6.2023857, 44.6202517 ], [ 6.2014416, 44.6196656 ], [ 6.200999, 44.6193524 ], [ 6.1996552, 44.6191367 ], [ 6.1991054, 44.6190126 ], [ 6.1975926, 44.6181955 ], [ 6.1961067, 44.6180924 ], [ 6.1956561, 44.6177831 ], [ 6.1958384, 44.6141173 ], [ 6.1969113, 44.6127807 ], [ 6.1975765, 44.6095041 ], [ 6.198585, 44.6083966 ], [ 6.1989283, 44.6049593 ] ] ] } },
{ "type": "Feature", "properties": { "osm_id": "547761780", "name": "Sainte-Anne la Condamine", "access": null, "area": null, "description": null, "landuse": "winter_sports", "name.oc": null, "operator": null, "piste.difficulty": null, "piste.grooming": null, "piste.type": null, "source.name.oc": null, "sport": null, "website": "https://www.sainte-anne.com", "wikidata": null, "wikipedia": null }, "geometry": { "type": "Polygon", "coordinates": [ [ [ 6.6959524, 44.4566665 ], [ 6.6968107, 44.4551349 ], [ 6.6972399, 44.4545376 ], [ 6.6977334, 44.4539555 ], [ 6.6992354, 44.4525617 ], [ 6.7011452, 44.4513516 ], [ 6.7020035, 44.4509534 ], [ 6.7024112, 44.4508768 ], [ 6.7028403, 44.4508308 ], [ 6.7084622, 44.4518724 ], [ 6.7115307, 44.4532816 ], [ 6.7177319, 44.4532203 ], [ 6.7200923, 44.4554106 ], [ 6.7202425, 44.4557323 ], [ 6.7201781, 44.4591171 ], [ 6.7203069, 44.4613837 ], [ 6.7213583, 44.4636656 ], [ 6.7217016, 44.4668049 ], [ 6.720262, 44.4680693 ], [ 6.7189121, 44.469255 ], [ 6.7112088, 44.4683515 ], [ 6.7064023, 44.4664833 ], [ 6.7024755, 44.4640791 ], [ 6.7001796, 44.4614756 ], [ 6.6960811, 44.4593774 ], [ 6.6954374, 44.458336 ], [ 6.6959524, 44.4566665 ] ] ] } },
{ "type": "Feature", "properties": { "osm_id": "548826689", "name": "Céüse", "access": null, "area": null, "description": null, "landuse": "winter_sports", "name.oc": null, "operator": null, "piste.difficulty": null, "piste.grooming": null, "piste.type": null, "source.name.oc": null, "sport": null, "website": null, "wikidata": null, "wikipedia": null }, "geometry": { "type": "Polygon", "coordinates": [ [ [ 5.934484, 44.5195051 ], [ 5.9347522, 44.5193521 ], [ 5.9350419, 44.5191073 ], [ 5.9352887, 44.5190767 ], [ 5.9359646, 44.5192374 ], [ 5.9370375, 44.5192221 ], [ 5.9379494, 44.5178528 ], [ 5.9366727, 44.5164145 ], [ 5.9371018, 44.5158943 ], [ 5.9417045, 44.5154506 ], [ 5.9428954, 44.514349 ], [ 5.9470153, 44.5142419 ], [ 5.9497189, 44.5137981 ], [ 5.9607482, 44.5096973 ], [ 5.9613597, 44.509001 ], [ 5.9611666, 44.5085343 ], [ 5.9604478, 44.5077845 ], [ 5.9555769, 44.5069581 ], [ 5.9492254, 44.504326 ], [ 5.946157, 44.5033925 ], [ 5.9413934, 44.5030405 ], [ 5.9369087, 44.5037751 ], [ 5.9339046, 44.5052136 ], [ 5.9288192, 44.5070653 ], [ 5.9282827, 44.5077386 ], [ 5.9264803, 44.5102176 ], [ 5.9262442, 44.5115488 ], [ 5.9272098, 44.5143184 ], [ 5.9288943, 44.517126 ], [ 5.9301495, 44.5184877 ], [ 5.9311795, 44.5200789 ], [ 5.931952, 44.5210351 ], [ 5.9325957, 44.5214864 ], [ 5.9331214, 44.5214864 ], [ 5.933336, 44.5211728 ], [ 5.9318662, 44.5190767 ], [ 5.9333467, 44.519727 ], [ 5.934484, 44.5195051 ] ] ] } },
{ "type": "Feature", "properties": { "osm_id": "549042071", "name": "Station du Col de Rousset", "access": null, "area": null, "description": null, "landuse": "winter_sports", "name.oc": null, "operator": null, "piste.difficulty": null, "piste.grooming": null, "piste.type": null, "source.name.oc": null, "sport": null, "website": "https://www.lesstationsdeladrome.fr/stations/col-du-rousset/", "wikidata": null, "wikipedia": null }, "geometry": { "type": "Polygon", "coordinates": [ [ [ 5.4095971, 44.8310087 ], [ 5.4122579, 44.8319674 ], [ 5.4137706, 44.8304609 ], [ 5.4166889, 44.8269455 ], [ 5.42171, 44.8271661 ], [ 5.4258513, 44.8307196 ], [ 5.427804, 44.8322565 ], [ 5.4298854, 44.8323174 ], [ 5.4347777, 44.8291217 ], [ 5.4377603, 44.8288478 ], [ 5.4405284, 44.8309631 ], [ 5.4414725, 44.8327435 ], [ 5.432868, 44.8359998 ], [ 5.4266667, 44.8420556 ], [ 5.4246282, 44.8430902 ], [ 5.4214096, 44.8427783 ], [ 5.4178905, 44.8412416 ], [ 5.4161954, 44.8395756 ], [ 5.4140281, 44.8396821 ], [ 5.4138136, 44.8423142 ], [ 5.4115391, 44.8432575 ], [ 5.4085135, 44.8425196 ], [ 5.4050159, 44.8394538 ], [ 5.4044258, 44.8370041 ], [ 5.4040182, 44.8349803 ], [ 5.4037285, 44.8327511 ], [ 5.4049247, 44.8315717 ], [ 5.4078376, 44.8309478 ], [ 5.4095971, 44.8310087 ] ] ] } },
{ "type": "Feature", "properties": { "osm_id": "549102651", "name": "Gresse en Vercors", "access": null, "area": null, "description": null, "landuse": "winter_sports", "name.oc": null, "operator": null, "piste.difficulty": null, "piste.grooming": null, "piste.type": null, "source.name.oc": null, "sport": null, "website": "https://www.gresse-en-vercors.fr", "wikidata": null, "wikipedia": "fr:Gresse-en-Vercors#Station_de_ski" }, "geometry": { "type": "Polygon", "coordinates": [ [ [ 5.5454886, 44.8955634 ], [ 5.548042, 44.8941345 ], [ 5.5503809, 44.8924624 ], [ 5.5506277, 44.8918088 ], [ 5.5510139, 44.8911323 ], [ 5.5528057, 44.8902734 ], [ 5.5533636, 44.8893233 ], [ 5.5520868, 44.8831357 ], [ 5.5515933, 44.8811135 ], [ 5.5514645, 44.8794866 ], [ 5.5512295, 44.8791868 ], [ 5.5509281, 44.8788024 ], [ 5.5473018, 44.8772705 ], [ 5.5458748, 44.8765292 ], [ 5.5452794, 44.8766509 ], [ 5.5452418, 44.8773959 ], [ 5.5455851, 44.8801176 ], [ 5.5460787, 44.8823298 ], [ 5.5465078, 44.8832421 ], [ 5.5488682, 44.8838198 ], [ 5.5495763, 44.8848841 ], [ 5.550338, 44.8865488 ], [ 5.5494904, 44.8891104 ], [ 5.5483854, 44.8912311 ], [ 5.5444157, 44.8912007 ], [ 5.5370235, 44.89171 ], [ 5.5319381, 44.8908283 ], [ 5.5292558, 44.8897945 ], [ 5.5260157, 44.8918012 ], [ 5.5260372, 44.8955558 ], [ 5.5283761, 44.8971974 ], [ 5.5307579, 44.8955102 ], [ 5.5340409, 44.8948566 ], [ 5.53653, 44.8967718 ], [ 5.5390405, 44.8976686 ], [ 5.541079, 44.8977598 ], [ 5.5441046, 44.8967718 ], [ 5.5454886, 44.8955634 ] ] ] } },
{ "type": "Feature", "properties": { "osm_id": "549105845", "name": "Col de l'Arzelier", "access": null, "area": null, "description": null, "landuse": "winter_sports", "name.oc": null, "operator": null, "piste.difficulty": null, "piste.grooming": null, "piste.type": null, "source.name.oc": null, "sport": null, "website": null, "wikidata": null, "wikipedia": null }, "geometry": { "type": "Polygon", "coordinates": [ [ [ 5.5920517, 44.9919714 ], [ 5.5940527, 44.9913872 ], [ 5.5951363, 44.9910059 ], [ 5.5945462, 44.990378 ], [ 5.5946508, 44.9898791 ], [ 5.5944705, 44.9895082 ], [ 5.5933425, 44.9898777 ], [ 5.5929727, 44.9899198 ], [ 5.5926876, 44.9900113 ], [ 5.5906194, 44.989752 ], [ 5.5896592, 44.9893802 ], [ 5.5885434, 44.9892322 ], [ 5.5865854, 44.9893347 ], [ 5.5847079, 44.9893537 ], [ 5.5839944, 44.9885911 ], [ 5.5831468, 44.9880599 ], [ 5.5815482, 44.9881282 ], [ 5.5796492, 44.988629 ], [ 5.5792522, 44.9902376 ], [ 5.5791986, 44.9920587 ], [ 5.580132, 44.9935306 ], [ 5.5809259, 44.99435 ], [ 5.5818486, 44.994699 ], [ 5.584166, 44.9949722 ], [ 5.5868912, 44.9941755 ], [ 5.5920517, 44.9919714 ] ] ] } },
{ "type": "Feature", "properties": { "osm_id": "549108702", "name": "L'Alpe du Grand Serre", "access": null, "area": null, "description": null, "landuse": "winter_sports", "name.oc": null, "operator": null, "piste.difficulty": null, "piste.grooming": null, "piste.type": null, "source.name.oc": null, "sport": null, "website": "https://www.alpedugrandserre.info/", "wikidata": null, "wikipedia": null }, "geometry": { "type": "Polygon", "coordinates": [ [ [ 5.8438682, 45.0239476 ], [ 5.8441686, 45.0227039 ], [ 5.844469, 45.0191548 ], [ 5.8430743, 45.0140885 ], [ 5.8456063, 45.0114642 ], [ 5.8459282, 45.0098713 ], [ 5.8444476, 45.0074137 ], [ 5.845499, 45.0047435 ], [ 5.8456707, 45.0028471 ], [ 5.8382892, 44.9989477 ], [ 5.8360576, 44.9975214 ], [ 5.8337617, 44.9983256 ], [ 5.8331823, 45.0007077 ], [ 5.8301139, 45.0003284 ], [ 5.8261227, 44.9964137 ], [ 5.8275175, 44.9921118 ], [ 5.8292985, 44.9914213 ], [ 5.8341479, 44.991133 ], [ 5.8371091, 44.9918766 ], [ 5.8424949, 44.991224 ], [ 5.8454132, 44.9911178 ], [ 5.8494258, 44.9880751 ], [ 5.8504557, 44.9889174 ], [ 5.8569574, 44.9967324 ], [ 5.8547687, 44.9994787 ], [ 5.8497476, 45.0040153 ], [ 5.8496403, 45.0075654 ], [ 5.8524728, 45.0104174 ], [ 5.8567214, 45.012526 ], [ 5.8580303, 45.0173649 ], [ 5.8639526, 45.0217711 ], [ 5.8633518, 45.0225067 ], [ 5.8604443, 45.0238262 ], [ 5.8559704, 45.0229617 ], [ 5.8535886, 45.0240689 ], [ 5.8494258, 45.0258585 ], [ 5.8468676, 45.027306 ], [ 5.8464353, 45.0270809 ], [ 5.8443403, 45.0255249 ], [ 5.8438682, 45.0239476 ] ] ] } },
{ "type": "Feature", "properties": { "osm_id": "599030875", "name": "Puy-Saint-Vincent", "access": null, "area": null, "description": null, "landuse": "winter_sports", "name.oc": null, "operator": null, "piste.difficulty": null, "piste.grooming": null, "piste.type": null, "source.name.oc": null, "sport": null, "website": "https://www.paysdesecrins.com/nos-stations/puy-saint-vincent", "wikidata": null, "wikipedia": null }, "geometry": { "type": "Polygon", "coordinates": [ [ [ 6.479913, 44.800108 ], [ 6.47634, 44.801378 ], [ 6.470192, 44.80204 ], [ 6.466136, 44.80251 ], [ 6.456651, 44.800283 ], [ 6.454959, 44.80103 ], [ 6.453628, 44.802009 ], [ 6.453608, 44.803654 ], [ 6.454022, 44.804582 ], [ 6.454929, 44.806102 ], [ 6.455202, 44.806547 ], [ 6.455495, 44.806968 ], [ 6.458701, 44.810577 ], [ 6.459006, 44.810912 ], [ 6.462462, 44.814426 ], [ 6.465302, 44.817289 ], [ 6.466386, 44.817583 ], [ 6.472745, 44.81949 ], [ 6.474383, 44.820056 ], [ 6.488477, 44.831355 ], [ 6.491128, 44.831499 ], [ 6.498413, 44.8286 ], [ 6.4999017, 44.828115 ], [ 6.500423, 44.826841 ], [ 6.500027, 44.824867 ], [ 6.495239, 44.818549 ], [ 6.493876, 44.812467 ], [ 6.491134, 44.808818 ], [ 6.491139, 44.803219 ], [ 6.490652, 44.802324 ], [ 6.489657, 44.801796 ], [ 6.489081, 44.801644 ], [ 6.488168, 44.801445 ], [ 6.479913, 44.800108 ] ] ] } },
{ "type": "Feature", "properties": { "osm_id": "599031565", "name": "Saint-Nizier du Moucherotte", "access": null, "area": null, "description": null, "landuse": "winter_sports", "name.oc": null, "operator": null, "piste.difficulty": null, "piste.grooming": null, "piste.type": null, "source.name.oc": null, "sport": null, "website": "https://www.vercors-experience.com/teleski-de-st-nizier-du-moucherotte.html", "wikidata": null, "wikipedia": null }, "geometry": { "type": "Polygon", "coordinates": [ [ [ 5.632468, 45.167794 ], [ 5.629966, 45.16889 ], [ 5.62962, 45.169593 ], [ 5.630393, 45.170262 ], [ 5.63192, 45.169945 ], [ 5.634393, 45.168791 ], [ 5.632468, 45.167794 ] ] ] } },
{ "type": "Feature", "properties": { "osm_id": "599427142", "name": "Ceillac en Queyras", "access": null, "area": null, "description": null, "landuse": "winter_sports", "name.oc": null, "operator": null, "piste.difficulty": null, "piste.grooming": null, "piste.type": null, "source.name.oc": null, "sport": null, "website": "https://ceillac.fr/", "wikidata": null, "wikipedia": null }, "geometry": { "type": "Polygon", "coordinates": [ [ [ 6.814192, 44.618003 ], [ 6.81326, 44.618023 ], [ 6.812499, 44.618163 ], [ 6.811142, 44.618736 ], [ 6.804774, 44.621961 ], [ 6.803771, 44.622671 ], [ 6.798108, 44.627557 ], [ 6.797367, 44.628863 ], [ 6.797124, 44.629315 ], [ 6.794932, 44.634611 ], [ 6.790514, 44.647939 ], [ 6.789451, 44.651381 ], [ 6.795731, 44.65145 ], [ 6.79923, 44.651005 ], [ 6.800042, 44.650628 ], [ 6.812859, 44.641276 ], [ 6.819671, 44.634512 ], [ 6.820118, 44.634047 ], [ 6.820567, 44.633574 ], [ 6.821009, 44.632838 ], [ 6.823205, 44.629101 ], [ 6.823595, 44.628417 ], [ 6.823857, 44.627314 ], [ 6.824127, 44.626113 ], [ 6.823231, 44.62481 ], [ 6.823036, 44.6245974 ], [ 6.822797, 44.624337 ], [ 6.818669, 44.620074 ], [ 6.818091, 44.619499 ], [ 6.817264, 44.618929 ], [ 6.814192, 44.618003 ] ] ] } },
{ "type": "Feature", "properties": { "osm_id": "599436073", "name": "Serre Chevalier", "access": null, "area": null, "description": null, "landuse": "winter_sports", "name.oc": null, "operator": null, "piste.difficulty": null, "piste.grooming": null, "piste.type": null, "source.name.oc": null, "sport": null, "website": "https://www.serre-chevalier.com", "wikidata": null, "wikipedia": null }, "geometry": { "type": "Polygon", "coordinates": [ [ [ 6.589217, 44.88864 ], [ 6.587924, 44.888676 ], [ 6.587563, 44.888703 ], [ 6.587074, 44.888778 ], [ 6.52839, 44.904952 ], [ 6.524012, 44.907953 ], [ 6.490897, 44.932406 ], [ 6.490249, 44.93301 ], [ 6.489874, 44.933468 ], [ 6.489592, 44.933931 ], [ 6.486909, 44.942308 ], [ 6.486784, 44.943226 ], [ 6.488138, 44.959307 ], [ 6.488227, 44.959777 ], [ 6.491231, 44.969565 ], [ 6.491701, 44.970323 ], [ 6.491964, 44.970686 ], [ 6.492149, 44.97091 ], [ 6.492601, 44.97139 ], [ 6.493266, 44.971678 ], [ 6.49412, 44.971969 ], [ 6.495091, 44.972195 ], [ 6.495352, 44.972248 ], [ 6.499239, 44.97272 ], [ 6.5064458, 44.9733546 ], [ 6.5074111, 44.9733073 ], [ 6.5066335, 44.9725013 ], [ 6.5074252, 44.9723971 ], [ 6.5073903, 44.9722616 ], [ 6.5070883, 44.9721249 ], [ 6.5074495, 44.9717056 ], [ 6.5077196, 44.9716771 ], [ 6.5096159, 44.9715797 ], [ 6.5106796, 44.9712099 ], [ 6.5113456, 44.9710833 ], [ 6.5118867, 44.9709165 ], [ 6.5124059, 44.9708182 ], [ 6.5126154, 44.9707698 ], [ 6.5133327, 44.9702233 ], [ 6.5140015, 44.9698753 ], [ 6.588502, 44.934618 ], [ 6.6013574, 44.9237298 ], [ 6.6119448, 44.914761 ], [ 6.6144162, 44.9126673 ], [ 6.6205258, 44.9074909 ], [ 6.6250009, 44.903699 ], [ 6.6298159, 44.8996189 ], [ 6.6303313, 44.8991897 ], [ 6.6306796, 44.8988899 ], [ 6.631501, 44.898191 ], [ 6.6323, 44.89721 ], [ 6.631947, 44.89546 ], [ 6.6310269, 44.8948744 ], [ 6.629886, 44.894035 ], [ 6.6282946, 44.8938112 ], [ 6.6184329, 44.8921378 ], [ 6.6164002, 44.8916997 ], [ 6.608724, 44.890914 ], [ 6.604308, 44.890267 ], [ 6.5951213, 44.889255 ], [ 6.589538, 44.88864 ], [ 6.589217, 44.88864 ] ] ] } },
{ "type": "Feature", "properties": { "osm_id": "601113519", "name": "Crévoux", "access": null, "area": null, "description": null, "landuse": "winter_sports", "name.oc": null, "operator": null, "piste.difficulty": null, "piste.grooming": null, "piste.type": null, "source.name.oc": null, "sport": null, "website": "https://www.crevoux.fr/", "wikidata": null, "wikipedia": null }, "geometry": { "type": "Polygon", "coordinates": [ [ [ 6.618039, 44.517069 ], [ 6.616917, 44.517354 ], [ 6.604756, 44.52321 ], [ 6.604159, 44.523835 ], [ 6.602657, 44.526196 ], [ 6.602464, 44.527167 ], [ 6.601845, 44.530319 ], [ 6.599918, 44.543263 ], [ 6.602344, 44.546563 ], [ 6.603244, 44.547357 ], [ 6.604244, 44.547595 ], [ 6.606806, 44.547507 ], [ 6.607567, 44.5472 ], [ 6.612069, 44.544114 ], [ 6.615392, 44.539995 ], [ 6.616399, 44.538418 ], [ 6.624301, 44.523295 ], [ 6.624079, 44.521875 ], [ 6.621358, 44.518908 ], [ 6.620008, 44.517474 ], [ 6.618039, 44.517069 ] ] ] } },
{ "type": "Feature", "properties": { "osm_id": "601113561", "name": "Réallon", "access": null, "area": null, "description": null, "landuse": "winter_sports", "name.oc": null, "operator": null, "piste.difficulty": null, "piste.grooming": null, "piste.type": null, "source.name.oc": null, "sport": null, "website": "https://www.reallon-ski.com/", "wikidata": null, "wikipedia": null }, "geometry": { "type": "Polygon", "coordinates": [ [ [ 6.346018, 44.572736 ], [ 6.344573, 44.572791 ], [ 6.340991, 44.573654 ], [ 6.340336, 44.573842 ], [ 6.338188, 44.575312 ], [ 6.33649, 44.577327 ], [ 6.335997, 44.578213 ], [ 6.336213, 44.581126 ], [ 6.33656, 44.581926 ], [ 6.337433, 44.583135 ], [ 6.338232, 44.583688 ], [ 6.345198, 44.587863 ], [ 6.345532, 44.588039 ], [ 6.347788, 44.588725 ], [ 6.348744, 44.588964 ], [ 6.349565, 44.589109 ], [ 6.350434, 44.589045 ], [ 6.352497, 44.588271 ], [ 6.356342, 44.586814 ], [ 6.362256, 44.580309 ], [ 6.362467, 44.58003 ], [ 6.363409, 44.578456 ], [ 6.363741, 44.577701 ], [ 6.363521, 44.574789 ], [ 6.34765, 44.572751 ], [ 6.346018, 44.572736 ] ] ] } },
{ "type": "Feature", "properties": { "osm_id": "601114662", "name": "Albiez-Montrond", "access": null, "area": null, "description": null, "landuse": "winter_sports", "name.oc": null, "operator": null, "piste.difficulty": null, "piste.grooming": null, "piste.type": null, "source.name.oc": null, "sport": null, "website": "https://www.station-albiez.com", "wikidata": null, "wikipedia": null }, "geometry": { "type": "Polygon", "coordinates": [ [ [ 6.361325, 45.201024 ], [ 6.360388, 45.201118 ], [ 6.344754, 45.203626 ], [ 6.338218, 45.205481 ], [ 6.337351, 45.20574 ], [ 6.336701, 45.206013 ], [ 6.33142, 45.210761 ], [ 6.332603, 45.219271 ], [ 6.343717, 45.220744 ], [ 6.355222, 45.221775 ], [ 6.376652, 45.21808 ], [ 6.374918, 45.214994 ], [ 6.374041, 45.21377 ], [ 6.362598, 45.20105 ], [ 6.361325, 45.201024 ] ] ] } },
{ "type": "Feature", "properties": { "osm_id": "601126774", "name": "Les Karellis", "access": null, "area": null, "description": null, "landuse": "winter_sports", "name.oc": null, "operator": null, "piste.difficulty": null, "piste.grooming": null, "piste.type": null, "source.name.oc": null, "sport": null, "website": "http://www.karellis.com", "wikidata": null, "wikipedia": null }, "geometry": { "type": "Polygon", "coordinates": [ [ [ 6.388505, 45.196174 ], [ 6.387089, 45.196361 ], [ 6.385386, 45.196753 ], [ 6.384302, 45.197835 ], [ 6.381967, 45.208858 ], [ 6.381702, 45.210589 ], [ 6.381419, 45.213518 ], [ 6.38153, 45.218774 ], [ 6.381628, 45.220708 ], [ 6.383637, 45.222443 ], [ 6.387655, 45.22487 ], [ 6.3979334, 45.2305591 ], [ 6.398123, 45.230664 ], [ 6.398923, 45.23092 ], [ 6.399804, 45.231013 ], [ 6.409475, 45.229572 ], [ 6.416506, 45.218943 ], [ 6.416882, 45.218184 ], [ 6.4183654, 45.20582 ], [ 6.411813, 45.197192 ], [ 6.4079667, 45.1970236 ], [ 6.393468, 45.196389 ], [ 6.388505, 45.196174 ] ] ] } },
{ "type": "Feature", "properties": { "osm_id": "601127473", "name": "Valfréjus", "access": null, "area": null, "description": null, "landuse": "winter_sports", "name.oc": null, "operator": null, "piste.difficulty": null, "piste.grooming": null, "piste.type": null, "source.name.oc": null, "sport": null, "website": "http://www.valfrejus.com", "wikidata": "Q918282", "wikipedia": null }, "geometry": { "type": "Polygon", "coordinates": [ [ [ 6.673053, 45.135567 ], [ 6.671156, 45.135595 ], [ 6.633189, 45.139775 ], [ 6.632206, 45.140541 ], [ 6.631634, 45.14206 ], [ 6.630758, 45.144944 ], [ 6.632824, 45.149983 ], [ 6.633096, 45.150449 ], [ 6.650622, 45.174059 ], [ 6.654206, 45.177243 ], [ 6.65518, 45.177561 ], [ 6.661785, 45.177002 ], [ 6.662442, 45.176858 ], [ 6.66545, 45.175656 ], [ 6.680871, 45.147055 ], [ 6.680449, 45.145399 ], [ 6.680169, 45.144591 ], [ 6.674234, 45.136382 ], [ 6.673053, 45.135567 ] ] ] } },
{ "type": "Feature", "properties": { "osm_id": "601130263", "name": "Galibier Thabor", "access": null, "area": null, "description": null, "landuse": "winter_sports", "name.oc": null, "operator": null, "piste.difficulty": null, "piste.grooming": null, "piste.type": null, "source.name.oc": null, "sport": null, "website": "https://www.valloire.net/", "wikidata": null, "wikipedia": null }, "geometry": { "type": "Polygon", "coordinates": [ [ [ 6.462915, 45.128951 ], [ 6.461683, 45.12901 ], [ 6.439252, 45.136508 ], [ 6.4261826, 45.1420212 ], [ 6.417127, 45.145841 ], [ 6.415966, 45.146439 ], [ 6.415774, 45.148176 ], [ 6.4186632, 45.1526191 ], [ 6.41981, 45.160173 ], [ 6.4205298, 45.1608044 ], [ 6.437208, 45.175432 ], [ 6.437619, 45.175767 ], [ 6.457819, 45.191079 ], [ 6.458286, 45.191351 ], [ 6.458906, 45.191666 ], [ 6.45975, 45.191931 ], [ 6.460279, 45.191906 ], [ 6.4682602, 45.1913346 ], [ 6.4973113, 45.1892549 ], [ 6.506263, 45.188614 ], [ 6.507646, 45.188501 ], [ 6.509857, 45.188273 ], [ 6.510536, 45.188174 ], [ 6.516225, 45.187103 ], [ 6.51666, 45.186925 ], [ 6.517168, 45.186713 ], [ 6.517603, 45.186485 ], [ 6.518248, 45.186066 ], [ 6.518519, 45.185854 ], [ 6.520557, 45.183832 ], [ 6.520979, 45.183013 ], [ 6.521018, 45.182295 ], [ 6.520461, 45.170958 ], [ 6.520405, 45.170298 ], [ 6.520071, 45.169564 ], [ 6.51959, 45.168799 ], [ 6.518976, 45.168276 ], [ 6.5167786, 45.1665887 ], [ 6.4999437, 45.1536604 ], [ 6.4998338, 45.153576 ], [ 6.4994804, 45.1533045 ], [ 6.4937151, 45.1488764 ], [ 6.4934632, 45.1486829 ], [ 6.4929125, 45.1482599 ], [ 6.48528, 45.142397 ], [ 6.4771281, 45.1374964 ], [ 6.462915, 45.128951 ] ] ] } },
{ "type": "Feature", "properties": { "osm_id": "601133334", "name": "Arvieux", "access": null, "area": null, "description": null, "landuse": "winter_sports", "name.oc": null, "operator": null, "piste.difficulty": null, "piste.grooming": null, "piste.type": null, "source.name.oc": null, "sport": null, "website": "https://lequeyras.com/selon-ma-nature/addict-de/ski-alpin-village-station-alpes/domaine-arvieux/", "wikidata": null, "wikipedia": null }, "geometry": { "type": "Polygon", "coordinates": [ [ [ 6.755537, 44.768934 ], [ 6.741751, 44.774156 ], [ 6.7365537, 44.7813182 ], [ 6.7364042, 44.7816013 ], [ 6.7357451, 44.7816673 ], [ 6.7355749, 44.7820506 ], [ 6.7350734, 44.7820482 ], [ 6.7350648, 44.7823921 ], [ 6.7349667, 44.7830705 ], [ 6.7354318, 44.7832527 ], [ 6.7358562, 44.7841357 ], [ 6.7345874, 44.7840665 ], [ 6.734208, 44.7846434 ], [ 6.7356879, 44.7849083 ], [ 6.7353455, 44.785708 ], [ 6.7337241, 44.7854575 ], [ 6.7332951, 44.7860976 ], [ 6.733141, 44.7866582 ], [ 6.7331126, 44.7869769 ], [ 6.7331927, 44.787535 ], [ 6.7340513, 44.7868105 ], [ 6.7348438, 44.7864199 ], [ 6.7357542, 44.7860946 ], [ 6.7358195, 44.7865641 ], [ 6.7355333, 44.7875742 ], [ 6.7352866, 44.7883806 ], [ 6.7345388, 44.7882881 ], [ 6.7331199, 44.7881759 ], [ 6.7330736, 44.7888041 ], [ 6.7329483, 44.7893313 ], [ 6.7327432, 44.7896643 ], [ 6.7324798, 44.7900604 ], [ 6.7327619, 44.7902075 ], [ 6.7327141, 44.7904107 ], [ 6.7359017, 44.7910662 ], [ 6.737319, 44.792006 ], [ 6.757462, 44.78231 ], [ 6.758623, 44.781505 ], [ 6.758991, 44.780113 ], [ 6.759144, 44.778974 ], [ 6.758064, 44.770049 ], [ 6.756884, 44.768994 ], [ 6.755537, 44.768934 ] ] ] } },
{ "type": "Feature", "properties": { "osm_id": "601136336", "name": "Dévoluy", "access": null, "area": null, "description": null, "landuse": "winter_sports", "name.oc": "Devoruí", "operator": null, "piste.difficulty": null, "piste.grooming": null, "piste.type": null, "source.name.oc": "ieo-bdtopoc", "sport": null, "website": "https://www.ledevoluy.com", "wikidata": "Q3504072", "wikipedia": null }, "geometry": { "type": "Polygon", "coordinates": [ [ [ 5.897369, 44.636767 ], [ 5.896296, 44.636931 ], [ 5.895091, 44.637609 ], [ 5.893796, 44.638766 ], [ 5.893117, 44.63994 ], [ 5.886405, 44.657693 ], [ 5.88572, 44.659939 ], [ 5.882298, 44.673144 ], [ 5.882338, 44.673939 ], [ 5.884675, 44.679052 ], [ 5.884815, 44.67934 ], [ 5.889894, 44.687789 ], [ 5.892302, 44.690869 ], [ 5.895707, 44.689925 ], [ 5.9035194, 44.687792 ], [ 5.9283384, 44.6810152 ], [ 5.9291575, 44.6799958 ], [ 5.9316263, 44.6779271 ], [ 5.9323428, 44.6772289 ], [ 5.9327926, 44.675559 ], [ 5.9345025, 44.6737924 ], [ 5.9330974, 44.672285 ], [ 5.929386, 44.666292 ], [ 5.92619, 44.66022 ], [ 5.923692, 44.657854 ], [ 5.9085043, 44.6441323 ], [ 5.900658, 44.637042 ], [ 5.899003, 44.636837 ], [ 5.897794, 44.63677 ], [ 5.897369, 44.636767 ] ] ] } },
{ "type": "Feature", "properties": { "osm_id": "601290756", "name": "Les Sybelles", "access": null, "area": null, "description": null, "landuse": "winter_sports", "name.oc": null, "operator": null, "piste.difficulty": null, "piste.grooming": null, "piste.type": null, "source.name.oc": null, "sport": null, "website": "https://www.sybelles.ski", "wikidata": null, "wikipedia": null }, "geometry": { "type": "Polygon", "coordinates": [ [ [ 6.214024, 45.19737 ], [ 6.213248, 45.197415 ], [ 6.184341, 45.201658 ], [ 6.180205, 45.203013 ], [ 6.179134, 45.203399 ], [ 6.178423, 45.204345 ], [ 6.178258, 45.205103 ], [ 6.177974, 45.210701 ], [ 6.178057, 45.211581 ], [ 6.1976308, 45.2449805 ], [ 6.221395, 45.285504 ], [ 6.22281, 45.287852 ], [ 6.223136, 45.288229 ], [ 6.2281153, 45.2931362 ], [ 6.230728, 45.295711 ], [ 6.232921, 45.295182 ], [ 6.2357961, 45.2939983 ], [ 6.2365398, 45.2936921 ], [ 6.295295, 45.269496 ], [ 6.295816, 45.269272 ], [ 6.296246, 45.268828 ], [ 6.298014, 45.266876 ], [ 6.298216, 45.266552 ], [ 6.2989258, 45.265252 ], [ 6.299135, 45.264869 ], [ 6.274171, 45.213852 ], [ 6.273845, 45.213494 ], [ 6.273488, 45.213104 ], [ 6.270038, 45.21134 ], [ 6.269533, 45.211175 ], [ 6.219453, 45.197738 ], [ 6.214666, 45.197383 ], [ 6.214024, 45.19737 ] ] ] } },
{ "type": "Feature", "properties": { "osm_id": "674846063", "name": "Les Signaraux", "access": null, "area": null, "description": null, "landuse": "winter_sports", "name.oc": null, "operator": null, "piste.difficulty": null, "piste.grooming": null, "piste.type": null, "source.name.oc": null, "sport": null, "website": "http://www.lessignaraux.fr/", "wikidata": null, "wikipedia": null }, "geometry": { "type": "Polygon", "coordinates": [ [ [ 5.7294529, 44.9374671 ], [ 5.738036, 44.9413554 ], [ 5.7415765, 44.941644 ], [ 5.7480567, 44.9382569 ], [ 5.7453745, 44.9307226 ], [ 5.7445162, 44.9246154 ], [ 5.739023, 44.9262562 ], [ 5.7374296, 44.9296434 ], [ 5.7368558, 44.9308897 ], [ 5.7355406, 44.9321818 ], [ 5.7319849, 44.9356747 ], [ 5.7294529, 44.9374671 ] ] ] } },
{ "type": "Feature", "properties": { "osm_id": "676485850", "name": "Col d'Ornon", "access": null, "area": null, "description": null, "landuse": "winter_sports", "name.oc": null, "operator": "SERACO", "piste.difficulty": null, "piste.grooming": null, "piste.type": null, "source.name.oc": null, "sport": null, "website": "http://www.col-dornon.com", "wikidata": null, "wikipedia": null }, "geometry": { "type": "Polygon", "coordinates": [ [ [ 5.9711145, 45.0183646 ], [ 5.9748579, 45.024715 ], [ 5.9771324, 45.0285216 ], [ 5.9784198, 45.0328436 ], [ 5.9804798, 45.0341628 ], [ 5.9842992, 45.0295832 ], [ 5.9871531, 45.0233955 ], [ 5.9870673, 45.0203772 ], [ 5.9823037, 45.0214845 ], [ 5.9804368, 45.0249121 ], [ 5.9764457, 45.021439 ], [ 5.975051, 45.0154021 ], [ 5.9779961, 45.0114392 ], [ 5.9780864, 45.0082224 ], [ 5.9798818, 45.0036973 ], [ 5.9793484, 45.0032 ], [ 5.9748748, 44.9990288 ], [ 5.9720043, 44.9881475 ], [ 5.9643546, 44.9887925 ], [ 5.9667106, 45.004345 ], [ 5.9676689, 45.0106694 ], [ 5.9711145, 45.0183646 ] ] ] } },
{ "type": "Feature", "properties": { "osm_id": "843588599", "name": "Station de ski de Reallon", "access": null, "area": null, "description": null, "landuse": "winter_sports", "name.oc": null, "operator": null, "piste.difficulty": null, "piste.grooming": null, "piste.type": null, "source.name.oc": null, "sport": null, "website": "https://www.reallon-ski.com", "wikidata": null, "wikipedia": null }, "geometry": { "type": "Polygon", "coordinates": [ [ [ 6.3611459, 44.5764324 ], [ 6.3612895, 44.5763363 ], [ 6.361665, 44.5763949 ], [ 6.3616847, 44.5764713 ], [ 6.3616798, 44.5765811 ], [ 6.3615701, 44.5771214 ], [ 6.362048, 44.5774714 ], [ 6.3615905, 44.5776711 ], [ 6.3614147, 44.5778614 ], [ 6.3613014, 44.5780518 ], [ 6.3612942, 44.5781769 ], [ 6.3613043, 44.5784077 ], [ 6.3612375, 44.5786766 ], [ 6.361085, 44.5789715 ], [ 6.3606457, 44.579266 ], [ 6.360312, 44.5795655 ], [ 6.3598548, 44.5797319 ], [ 6.3594144, 44.5800266 ], [ 6.3593581, 44.5800738 ], [ 6.3589472, 44.5804187 ], [ 6.3586836, 44.5807728 ], [ 6.3584033, 44.5810842 ], [ 6.3580697, 44.5812458 ], [ 6.3574123, 44.5814336 ], [ 6.3566048, 44.5818257 ], [ 6.3561043, 44.5822464 ], [ 6.3560042, 44.5825363 ], [ 6.355834, 44.582995 ], [ 6.355834, 44.5831804 ], [ 6.3559341, 44.5835511 ], [ 6.3558273, 44.5839052 ], [ 6.3557439, 44.5842498 ], [ 6.3555904, 44.5845659 ], [ 6.3553869, 44.584882 ], [ 6.3552935, 44.5851077 ], [ 6.3552494, 44.5851566 ], [ 6.3551383, 44.5851855 ], [ 6.3548009, 44.5851713 ], [ 6.3540019, 44.5848982 ], [ 6.3537959, 44.5848094 ], [ 6.3535547, 44.584794 ], [ 6.353197, 44.5850101 ], [ 6.3530804, 44.5853769 ], [ 6.3530235, 44.5857707 ], [ 6.3527199, 44.5859772 ], [ 6.3523053, 44.5861722 ], [ 6.3519827, 44.5863961 ], [ 6.3517361, 44.5865524 ], [ 6.3511154, 44.5867571 ], [ 6.3506872, 44.5868323 ], [ 6.3502969, 44.587064 ], [ 6.3500503, 44.5871991 ], [ 6.3499283, 44.5872184 ], [ 6.3497061, 44.5871566 ], [ 6.3494052, 44.5871006 ], [ 6.3490935, 44.5870408 ], [ 6.3487819, 44.586925 ], [ 6.3484485, 44.586869 ], [ 6.3481477, 44.586815 ], [ 6.347817, 44.5866721 ], [ 6.3472831, 44.5863324 ], [ 6.347115, 44.586288 ], [ 6.3462775, 44.5862185 ], [ 6.3461691, 44.5861818 ], [ 6.3460959, 44.5860873 ], [ 6.345459, 44.5854194 ], [ 6.345066, 44.585126 ], [ 6.3449766, 44.5851839 ], [ 6.3445321, 44.5850314 ], [ 6.3441581, 44.5848441 ], [ 6.3439141, 44.584653 ], [ 6.3437217, 44.5844851 ], [ 6.3435211, 44.5843693 ], [ 6.343075, 44.5840757 ], [ 6.3423808, 44.583628 ], [ 6.3416618, 44.5833091 ], [ 6.3410867, 44.5830048 ], [ 6.3404894, 44.5825535 ], [ 6.3401891, 44.5824457 ], [ 6.3397906, 44.5822584 ], [ 6.3392745, 44.5820837 ], [ 6.3389531, 44.5819252 ], [ 6.338498, 44.5813499 ], [ 6.3380765, 44.580721 ], [ 6.3381139, 44.5801591 ], [ 6.3381425, 44.5795673 ], [ 6.3379651, 44.5790333 ], [ 6.337748, 44.5786808 ], [ 6.3376668, 44.5786341 ], [ 6.3375651, 44.5786634 ], [ 6.3370499, 44.5790973 ], [ 6.3369352, 44.5791747 ], [ 6.3368015, 44.5792085 ], [ 6.3363276, 44.5792707 ], [ 6.3361447, 44.5794758 ], [ 6.3361613, 44.5797009 ], [ 6.3360787, 44.5797745 ], [ 6.3359961, 44.5797863 ], [ 6.3358539, 44.5797461 ], [ 6.3358039, 44.5796324 ], [ 6.3357449, 44.5793064 ], [ 6.3355526, 44.578929 ], [ 6.3353658, 44.5784733 ], [ 6.3354513, 44.5782683 ], [ 6.3355916, 44.5779689 ], [ 6.3356886, 44.5776657 ], [ 6.3360118, 44.577406 ], [ 6.3365831, 44.5769411 ], [ 6.336905, 44.5767166 ], [ 6.3369892, 44.5766899 ], [ 6.3371314, 44.5766694 ], [ 6.3374361, 44.5766901 ], [ 6.3376355, 44.5767532 ], [ 6.3377651, 44.5767786 ], [ 6.3379466, 44.5767459 ], [ 6.3381307, 44.5767361 ], [ 6.3389844, 44.576761 ], [ 6.3393098, 44.5767201 ], [ 6.3396427, 44.5766347 ], [ 6.3403665, 44.5761545 ], [ 6.3409485, 44.5758114 ], [ 6.3411182, 44.5755841 ], [ 6.3414065, 44.5754762 ], [ 6.3419609, 44.5756005 ], [ 6.3421572, 44.5754285 ], [ 6.3419569, 44.5751155 ], [ 6.3419691, 44.5749611 ], [ 6.3421385, 44.574659 ], [ 6.3424708, 44.5744435 ], [ 6.3429043, 44.574272 ], [ 6.3433906, 44.5741773 ], [ 6.343669, 44.5741802 ], [ 6.3437184, 44.5742175 ], [ 6.3436629, 44.5744072 ], [ 6.3435827, 44.5745793 ], [ 6.3434881, 44.5747538 ], [ 6.3435536, 44.5748921 ], [ 6.3438982, 44.5750223 ], [ 6.3441674, 44.5748812 ], [ 6.3448739, 44.5747034 ], [ 6.3462082, 44.5746169 ], [ 6.3464606, 44.574624 ], [ 6.3477026, 44.5746588 ], [ 6.3494329, 44.5759288 ], [ 6.3502407, 44.5764008 ], [ 6.3511104, 44.5767892 ], [ 6.3517072, 44.5768725 ], [ 6.3528151, 44.5770206 ], [ 6.3536368, 44.5772498 ], [ 6.3538608, 44.5773201 ], [ 6.3540288, 44.5775504 ], [ 6.3542935, 44.5776922 ], [ 6.3546188, 44.577732 ], [ 6.3549287, 44.5777343 ], [ 6.3552758, 44.5776561 ], [ 6.3560462, 44.5772244 ], [ 6.3567298, 44.5770157 ], [ 6.3582146, 44.5767817 ], [ 6.3585524, 44.5767151 ], [ 6.3589015, 44.5765547 ], [ 6.359353, 44.5763842 ], [ 6.3595353, 44.5763021 ], [ 6.3596297, 44.5762828 ], [ 6.3597394, 44.5762752 ], [ 6.3598644, 44.5763105 ], [ 6.3599954, 44.57635 ], [ 6.3601192, 44.5764055 ], [ 6.36019, 44.5764626 ], [ 6.3602785, 44.5766004 ], [ 6.3604007, 44.5767207 ], [ 6.3604247, 44.5766788 ], [ 6.3605434, 44.5766378 ], [ 6.3606766, 44.5765531 ], [ 6.360787, 44.5764552 ], [ 6.3608349, 44.5764879 ], [ 6.3609285, 44.5764444 ], [ 6.3609879, 44.5765093 ], [ 6.3611459, 44.5764324 ] ] ] } },
{ "type": "Feature", "properties": { "osm_id": "999468694", "name": "Sappey-en-Chartreuse", "access": null, "area": "yes", "description": null, "landuse": "winter_sports", "name.oc": null, "operator": "Domaine alpin du Sappey-en-Chartreuse", "piste.difficulty": null, "piste.grooming": null, "piste.type": null, "source.name.oc": null, "sport": null, "website": "https://www.grenoble-tourisme.com/fr/decouvrir/le-territoire/le-sappey-en-chartreuse-porte-de-chartreuse", "wikidata": null, "wikipedia": null }, "geometry": { "type": "Polygon", "coordinates": [ [ [ 5.7754238, 45.2559532 ], [ 5.7747733, 45.2556525 ], [ 5.7755488, 45.2545144 ], [ 5.7760971, 45.2540627 ], [ 5.7761971, 45.2539607 ], [ 5.7762381, 45.2538818 ], [ 5.7762538, 45.2537525 ], [ 5.7763359, 45.2537336 ], [ 5.7764305, 45.2536011 ], [ 5.7764774, 45.2533956 ], [ 5.7770565, 45.252982 ], [ 5.7772929, 45.2527778 ], [ 5.7776533, 45.2524455 ], [ 5.7779023, 45.2522522 ], [ 5.7782112, 45.2520648 ], [ 5.7785031, 45.2518473 ], [ 5.778752, 45.2517023 ], [ 5.7790266, 45.2515814 ], [ 5.7791554, 45.2515089 ], [ 5.7795845, 45.251521 ], [ 5.7796704, 45.2514002 ], [ 5.7799708, 45.2512068 ], [ 5.7801481, 45.2510761 ], [ 5.7802712, 45.2508624 ], [ 5.7803484, 45.2506328 ], [ 5.7804514, 45.2504696 ], [ 5.7805029, 45.2503004 ], [ 5.7805201, 45.2501131 ], [ 5.7806488, 45.2497868 ], [ 5.7809149, 45.2495209 ], [ 5.7811896, 45.2492551 ], [ 5.78149, 45.2490436 ], [ 5.7816702, 45.2488744 ], [ 5.7818195, 45.2487352 ], [ 5.7819363, 45.2486145 ], [ 5.7826698, 45.2481937 ], [ 5.7834915, 45.2474979 ], [ 5.7841345, 45.2475403 ], [ 5.7846123, 45.2477475 ], [ 5.7853454, 45.2480089 ], [ 5.7861167, 45.248334 ], [ 5.7868091, 45.248772 ], [ 5.7871448, 45.2489843 ], [ 5.7877974, 45.2496407 ], [ 5.7882927, 45.2502322 ], [ 5.7873744, 45.2501217 ], [ 5.7870623, 45.2502234 ], [ 5.7863667, 45.2504529 ], [ 5.7857771, 45.2507148 ], [ 5.7855986, 45.2509443 ], [ 5.7856369, 45.2513012 ], [ 5.7859301, 45.2518622 ], [ 5.7860731, 45.252309 ], [ 5.7858895, 45.2524232 ], [ 5.7856825, 45.2526351 ], [ 5.7855769, 45.2526778 ], [ 5.7854597, 45.2526932 ], [ 5.7850417, 45.2526795 ], [ 5.7846908, 45.252857 ], [ 5.7845586, 45.2528422 ], [ 5.7842629, 45.2528964 ], [ 5.7836616, 45.2529752 ], [ 5.7834003, 45.2530541 ], [ 5.78308, 45.2529013 ], [ 5.7827152, 45.2528619 ], [ 5.7823899, 45.2529161 ], [ 5.7819561, 45.2530147 ], [ 5.7816752, 45.253128 ], [ 5.7815615, 45.2533847 ], [ 5.7815618, 45.2536209 ], [ 5.781202, 45.2539413 ], [ 5.7811823, 45.2543455 ], [ 5.7812267, 45.2544934 ], [ 5.7813992, 45.2546462 ], [ 5.781685, 45.2547398 ], [ 5.7816012, 45.2551201 ], [ 5.7812502, 45.2553225 ], [ 5.7810627, 45.2552845 ], [ 5.7808687, 45.255189 ], [ 5.7807825, 45.2551185 ], [ 5.780553, 45.2549871 ], [ 5.7803828, 45.2549349 ], [ 5.7801765, 45.2548772 ], [ 5.7794355, 45.255278 ], [ 5.7791462, 45.256155 ], [ 5.7787479, 45.2562367 ], [ 5.7785762, 45.2561763 ], [ 5.778355, 45.2561562 ], [ 5.7781735, 45.2561366 ], [ 5.7778275, 45.2560268 ], [ 5.7775488, 45.2561 ], [ 5.7772162, 45.2563192 ], [ 5.7766147, 45.256263 ], [ 5.7761922, 45.2562236 ], [ 5.7754238, 45.2559532 ] ] ] } },
{ "type": "Feature", "properties": { "osm_id": "999478349", "name": "Méaudre", "access": null, "area": "yes", "description": null, "landuse": "winter_sports", "name.oc": null, "operator": "Autrans-Méaudre en Vercors", "piste.difficulty": null, "piste.grooming": null, "piste.type": null, "source.name.oc": null, "sport": null, "website": "https://autrans-meaudre.com", "wikidata": null, "wikipedia": null }, "geometry": { "type": "Polygon", "coordinates": [ [ [ 5.4927877, 45.1288725 ], [ 5.4930421, 45.1290273 ], [ 5.4946194, 45.1295801 ], [ 5.4957996, 45.1294439 ], [ 5.4966793, 45.1293076 ], [ 5.4976449, 45.1295499 ], [ 5.4991684, 45.1295196 ], [ 5.4997049, 45.1292168 ], [ 5.5000696, 45.1292774 ], [ 5.5007563, 45.1294742 ], [ 5.5014858, 45.1295196 ], [ 5.501966, 45.1296123 ], [ 5.502844, 45.1294164 ], [ 5.50346, 45.1290654 ], [ 5.5047181, 45.1286463 ], [ 5.5056724, 45.1283939 ], [ 5.5068807, 45.1280372 ], [ 5.5086742, 45.1276424 ], [ 5.5098329, 45.1275061 ], [ 5.5107126, 45.1275061 ], [ 5.5136243, 45.1274137 ], [ 5.5144334, 45.1273579 ], [ 5.5152243, 45.1274422 ], [ 5.5168172, 45.1272615 ], [ 5.517783, 45.1271516 ], [ 5.5193604, 45.1274508 ], [ 5.5193693, 45.1276204 ], [ 5.5196413, 45.1279705 ], [ 5.5193625, 45.1284302 ], [ 5.5176901, 45.1284994 ], [ 5.5168485, 45.1285248 ], [ 5.5165546, 45.1287935 ], [ 5.5163425, 45.1291365 ], [ 5.5167549, 45.1291633 ], [ 5.5177216, 45.129154 ], [ 5.5177569, 45.1298886 ], [ 5.5189303, 45.1298589 ], [ 5.5196894, 45.1298532 ], [ 5.5198153, 45.1288716 ], [ 5.5203633, 45.1286598 ], [ 5.5203789, 45.1281549 ], [ 5.5208644, 45.1277581 ], [ 5.5214108, 45.12747 ], [ 5.5216503, 45.1271971 ], [ 5.5216734, 45.1268006 ], [ 5.5215812, 45.1266836 ], [ 5.5221984, 45.1262255 ], [ 5.5224563, 45.126024 ], [ 5.522507, 45.1257315 ], [ 5.5223504, 45.1255398 ], [ 5.5218346, 45.1254488 ], [ 5.5211963, 45.1254875 ], [ 5.5206952, 45.1255509 ], [ 5.5204511, 45.1252292 ], [ 5.5204575, 45.1246127 ], [ 5.5203226, 45.1242502 ], [ 5.5201042, 45.123815 ], [ 5.519783, 45.1233709 ], [ 5.5195839, 45.1230037 ], [ 5.5192434, 45.1224553 ], [ 5.5186396, 45.1221244 ], [ 5.5183441, 45.1218887 ], [ 5.5180615, 45.1212859 ], [ 5.5179972, 45.1208235 ], [ 5.5180358, 45.1204337 ], [ 5.5179587, 45.1199895 ], [ 5.5182156, 45.1196359 ], [ 5.518541, 45.119417 ], [ 5.5187136, 45.1189256 ], [ 5.5185595, 45.1181386 ], [ 5.5182021, 45.1177733 ], [ 5.5178447, 45.1175211 ], [ 5.5175982, 45.117369 ], [ 5.5174318, 45.1171211 ], [ 5.5172123, 45.1169592 ], [ 5.5164446, 45.1169333 ], [ 5.5163025, 45.1169616 ], [ 5.516614, 45.1183839 ], [ 5.5168541, 45.121304 ], [ 5.517331, 45.1220749 ], [ 5.51919, 45.1237228 ], [ 5.5194342, 45.1244637 ], [ 5.5194675, 45.1247463 ], [ 5.5184746, 45.1243703 ], [ 5.518317, 45.1244928 ], [ 5.5184897, 45.1250025 ], [ 5.5179052, 45.1253701 ], [ 5.5172433, 45.1252241 ], [ 5.5167296, 45.1251582 ], [ 5.5167856, 45.1247233 ], [ 5.5165801, 45.124374 ], [ 5.5160945, 45.1240181 ], [ 5.5157395, 45.1237743 ], [ 5.5152258, 45.123603 ], [ 5.5143946, 45.1238204 ], [ 5.5142078, 45.124262 ], [ 5.5132271, 45.1246706 ], [ 5.512153, 45.125402 ], [ 5.5114058, 45.1250989 ], [ 5.5103971, 45.1244729 ], [ 5.5089681, 45.1243213 ], [ 5.5079126, 45.1243213 ], [ 5.5074643, 45.1244992 ], [ 5.5054984, 45.1246296 ], [ 5.5041879, 45.1246274 ], [ 5.5028162, 45.1242663 ], [ 5.5012498, 45.1244328 ], [ 5.5002628, 45.1247356 ], [ 5.4995761, 45.1251444 ], [ 5.4995547, 45.1259014 ], [ 5.4985676, 45.1266886 ], [ 5.4972158, 45.1266735 ], [ 5.496336, 45.1261285 ], [ 5.4930737, 45.1249201 ], [ 5.4926701, 45.1250351 ], [ 5.4923519, 45.1260671 ], [ 5.4922811, 45.1275084 ], [ 5.4927866, 45.1287409 ], [ 5.4927877, 45.1288725 ] ] ] } },
{ "type": "Feature", "properties": { "osm_id": "1083826895", "name": "Colline des Bains", "access": "customers", "area": null, "description": "Pistes de ski et de luge en hiver\nVTT en été", "landuse": "winter_sports", "name.oc": null, "operator": null, "piste.difficulty": null, "piste.grooming": null, "piste.type": null, "source.name.oc": null, "sport": null, "website": "https://www.villarddelans-correnconenvercors.com/activites/ski-et-activites-de-neige/luges-et-espace-de-glisse/luge-et-ski-park/", "wikidata": null, "wikipedia": null }, "geometry": { "type": "Polygon", "coordinates": [ [ [ 5.5519352, 45.064719 ], [ 5.5521489, 45.0647874 ], [ 5.5524209, 45.0648683 ], [ 5.5526626, 45.0649417 ], [ 5.553056, 45.0650043 ], [ 5.5533316, 45.065086 ], [ 5.5536847, 45.065187 ], [ 5.5538365, 45.0652513 ], [ 5.5538855, 45.0653337 ], [ 5.5538412, 45.065478 ], [ 5.5537267, 45.0655457 ], [ 5.5533172, 45.0657592 ], [ 5.5519698, 45.0664809 ], [ 5.551754, 45.0666278 ], [ 5.5513841, 45.0665013 ], [ 5.551082, 45.0664244 ], [ 5.5510764, 45.0665562 ], [ 5.551082, 45.0666191 ], [ 5.5510825, 45.0666339 ], [ 5.5510771, 45.0666491 ], [ 5.5510493, 45.0666658 ], [ 5.5507472, 45.0666731 ], [ 5.5507242, 45.0666165 ], [ 5.5507127, 45.0665165 ], [ 5.5505083, 45.0664003 ], [ 5.5496906, 45.0662589 ], [ 5.5495645, 45.0662103 ], [ 5.5494408, 45.0661311 ], [ 5.5493695, 45.0660099 ], [ 5.549345, 45.0659274 ], [ 5.5493441, 45.0658167 ], [ 5.549415, 45.0656687 ], [ 5.5495383, 45.0654968 ], [ 5.5496831, 45.0653793 ], [ 5.5497755, 45.0653347 ], [ 5.5498787, 45.0653206 ], [ 5.5500466, 45.0653031 ], [ 5.5501437, 45.0652596 ], [ 5.5502115, 45.0651486 ], [ 5.5503424, 45.0650757 ], [ 5.5506819, 45.0649284 ], [ 5.5510408, 45.0647956 ], [ 5.551221, 45.0646553 ], [ 5.5514259, 45.0645574 ], [ 5.5515353, 45.0644921 ], [ 5.5516986, 45.0645846 ], [ 5.5518188, 45.064652 ], [ 5.5519352, 45.064719 ] ] ] } }
]
}
